﻿Sid,Trigger,AlarmType,IsOn,StationId,Point,Name,Description,Camera,Preset,McsPopup,stationPopup,FacilityService1Popup,TrainService1Popup,TrainService2Popup,PowerServicePopup,Note
951,401FIRE0451,fire,On,1,45,401 수신기45 동작,401 화재01 P-U1 ,401-01 P-U1,,Y,Y,,,,,
952,401FIRE0461,fire,On,1,46,401 수신기46 동작,401 화재03 P-D1 ,401-03 P-D1,,Y,Y,,,,,
953,401FIRE0471,fire,On,1,47,401 수신기47 동작,401 화재03 P-D1 ,401-03 P-D1,,Y,Y,,,,,
954,401FIRE0481,fire,On,1,48,401 수신기48 동작,401 화재03 P-D1 ,401-03 P-D1,,Y,Y,,,,,
955,401FIRE0491,fire,On,1,49,401 수신기49 동작,401 화재03 P-D1 ,401-03 P-D1,,Y,Y,,,,,
1138,402FIRE0011,fire,On,2,1,402 수신기001 동작,402 화재21 대합실화재P/T1-01 ,402-14 대합실화재P/T1,1,Y,Y,,,,,
1139,402FIRE0021,fire,On,2,2,402 수신기002 동작,402 화재22 대합실화재P/T1-02 ,402-14 대합실화재P/T1,2,Y,Y,,,,,
1140,402FIRE0031,fire,On,2,3,402 수신기003 동작,402 화재22 대합실화재P/T1-02 ,402-14 대합실화재P/T1,2,Y,Y,,,,,
1141,402FIRE0041,fire,On,2,4,402 수신기004 동작,402 화재22 대합실화재P/T1-02 ,402-14 대합실화재P/T1,2,Y,Y,,,,,
1142,402FIRE0051,fire,On,2,5,402 수신기005 동작,402 화재21 대합실화재P/T1-01 ,402-14 대합실화재P/T1,1,Y,Y,,,,,
1143,402FIRE0061,fire,On,2,6,402 수신기006 동작,402 화재21 대합실화재P/T1-01 ,402-14 대합실화재P/T1,1,Y,Y,,,,,
1144,402FIRE0071,fire,On,2,7,402 수신기007 동작,402 화재21 대합실화재P/T1-01 ,402-14 대합실화재P/T1,1,Y,Y,,,,,
1145,402FIRE0081,fire,On,2,8,402 수신기008 동작,402 화재22 대합실화재P/T1-02 ,402-14 대합실화재P/T1,2,Y,Y,,,,,
1146,402FIRE0091,fire,On,2,9,402 수신기009 동작,402 화재23 대합실화재P/T1-03 ,402-14 대합실화재P/T1,3,Y,Y,,,,,
1147,402FIRE0101,fire,On,2,10,402 수신기010 동작,402 화재23 대합실화재P/T1-03 ,402-14 대합실화재P/T1,3,Y,Y,,,,,
1148,402FIRE0111,fire,On,2,11,402 수신기011 동작,402 화재21 대합실화재P/T1-01 ,402-14 대합실화재P/T1,1,Y,Y,,,,,
1149,402FIRE0121,fire,On,2,12,402 수신기012 동작,402 화재21 대합실화재P/T1-01 ,402-14 대합실화재P/T1,1,Y,Y,,,,,
1150,402FIRE0131,fire,On,2,13,402 수신기013 동작,402 화재21 대합실화재P/T1-01 ,402-14 대합실화재P/T1,1,Y,Y,,,,,
1151,402FIRE0141,fire,On,2,14,402 수신기014 동작,402 화재24 대합실화재P/T1-04 ,402-14 대합실화재P/T1,4,Y,Y,,,,,
1152,402FIRE0151,fire,On,2,15,402 수신기015 동작,402 화재11 게이트8 ,402-05 게이트 8,,Y,Y,,,,,
1153,402FIRE0161,fire,On,2,16,402 수신기016 동작,402 화재11 게이트8 ,402-05 게이트 8,,Y,Y,,,,,
1154,402FIRE0171,fire,On,2,17,402 수신기017 동작,402 화재25 대합실화재P/T1-05 ,402-14 대합실화재P/T1,4,Y,Y,,,,,
1155,402FIRE0181,fire,On,2,18,402 수신기018 동작,402 화재12 게이트4 ,402-06 게이트 4,,Y,Y,,,,,
1156,402FIRE0191,fire,On,2,19,402 수신기019 동작,402 화재25 대합실화재P/T1-05 ,402-14 대합실화재P/T1,4,Y,Y,,,,,
1157,402FIRE0201,fire,On,2,20,402 수신기020 동작,402 화재25 대합실화재P/T1-05 ,402-14 대합실화재P/T1,4,Y,Y,,,,,
1168,402FIRE0211,fire,On,2,21,402 수신기021 동작,402 화재25 대합실화재P/T1-05 ,402-14 대합실화재P/T1,4,Y,Y,,,,,
1169,402FIRE0221,fire,On,2,22,402 수신기022 동작,402 화재25 대합실화재P/T1-05 ,402-14 대합실화재P/T1,4,Y,Y,,,,,
1170,402FIRE0231,fire,On,2,23,402 수신기023 동작,402 화재25 대합실화재P/T1-05 ,402-14 대합실화재P/T1,4,Y,Y,,,,,
1171,402FIRE0241,fire,On,2,24,402 수신기024 동작,402 화재25 대합실화재P/T1-05 ,402-14 대합실화재P/T1,4,Y,Y,,,,,
1172,402FIRE0251,fire,On,2,25,402 수신기025 동작,402 화재25 대합실화재P/T1-05 ,402-14 대합실화재P/T1,4,Y,Y,,,,,
1173,402FIRE0261,fire,On,2,26,402 수신기026 동작,402 화재25 대합실화재P/T1-05 ,402-14 대합실화재P/T1,4,Y,Y,,,,,
1176,402FIRE0331,fire,On,2,33,402 수신기033 동작,402 화재13 게이트13 ,402-07 게이트13,,Y,Y,,,,,
1175,402FIRE0341,fire,On,2,34,402 수신기034 동작,402 화재13 게이트13 ,402-07 게이트13,,Y,Y,,,,,
1177,402FIRE0351,fire,On,2,35,402 수신기035 동작,402 화재16 발매기실 ,402-35 발매기실,,Y,Y,,,,,
1178,402FIRE0361,fire,On,2,36,402 수신기036 동작,402 화재13 게이트13 ,402-07 게이트13,,Y,Y,,,,,
1179,402FIRE0371,fire,On,2,37,402 수신기037 동작,402 화재13 게이트13 ,402-07 게이트13,,Y,Y,,,,,
1180,402FIRE0441,fire,On,2,44,402 수신기044 동작,402 화재15 고객서비스센터 ,402-34 고객서비스센터,,Y,Y,,,,,
1181,402FIRE0451,fire,On,2,45,402 수신기045 동작,402 화재15 고객서비스센터 ,402-34 고객서비스센터,,Y,Y,,,,,
1182,402FIRE0461,fire,On,2,46,402 수신기046 동작,402 화재13 게이트13 ,402-07 게이트13,,Y,Y,,,,,
1183,402FIRE0531,fire,On,2,53,402 수신기053 동작,402 화재53 전기실P/T-03 ,402-37 전기실P/T,3,Y,Y,,,,,
1184,402FIRE0541,fire,On,2,54,402 수신기054 동작,402 화재54 전기실P/T-04 ,402-37 전기실P/T,4,Y,Y,,,,,
1185,402FIRE0551,fire,On,2,55,402 수신기055 동작,402 화재52 전기실P/T-02 ,402-37 전기실P/T,2,Y,Y,,,,,
1186,402FIRE0561,fire,On,2,56,402 수신기056 동작,402 화재55 전기실P/T-05 ,402-37 전기실P/T,5,Y,Y,,,,,
1187,402FIRE0581,fire,On,2,58,402 수신기058 동작,402 화재42 신호통신실P/T-02 ,402-36 신호통신실P/T,2,Y,Y,,,,,
1188,402FIRE0591,fire,On,2,59,402 수신기059 동작,402 화재41 신호통신실P/T-01 ,402-36 신호통신실P/T,1,Y,Y,,,,,
1280,402FIRE0601,fire,On,2,60,402 수신기060 동작,402 화재54 전기실P/T-04 ,402-37 전기실P/T,4,Y,Y,,,,,
1282,402FIRE0661,fire,On,2,66,402 수신기066 동작,402 화재26 대합실화재P/T2-01 ,402-15 대합실화재P/T2,1,Y,Y,,,,,
1283,402FIRE0671,fire,On,2,67,402 수신기067 동작,402 화재26 대합실화재P/T2-01 ,402-15 대합실화재P/T2,1,Y,Y,,,,,
1284,402FIRE0681,fire,On,2,68,402 수신기068 동작,402 화재26 대합실화재P/T2-01 ,402-15 대합실화재P/T2,1,Y,Y,,,,,
1285,402FIRE0691,fire,On,2,69,402 수신기069 동작,402 화재26 대합실화재P/T2-01 ,402-15 대합실화재P/T2,1,Y,Y,,,,,
1286,402FIRE0701,fire,On,2,70,402 수신기070 동작,402 화재26 대합실화재P/T2-01 ,402-15 대합실화재P/T2,1,Y,Y,,,,,
1287,402FIRE0711,fire,On,2,71,402 수신기071 동작,402 화재27 대합실화재P/T2-02 ,402-15 대합실화재P/T2,2,Y,Y,,,,,
1288,402FIRE0721,fire,On,2,72,402 수신기072 동작,402 화재27 대합실화재P/T2-02 ,402-15 대합실화재P/T2,2,Y,Y,,,,,
1289,402FIRE0731,fire,On,2,73,402 수신기073 동작,402 화재27 대합실화재P/T2-02 ,402-15 대합실화재P/T2,2,Y,Y,,,,,
1290,402FIRE0741,fire,On,2,74,402 수신기074 동작,402 화재28 대합실화재P/T2-03 ,402-15 대합실화재P/T2,3,Y,Y,,,,,
1291,402FIRE0751,fire,On,2,75,402 수신기075 동작,402 화재17 환승통로계단1 ,402-13 환승통로계단1,,Y,Y,,,,,
1292,402FIRE0761,fire,On,2,76,402 수신기076 동작,402 화재17 환승통로계단1 ,402-13 환승통로계단1,,Y,Y,,,,,
1293,402FIRE0771,fire,On,2,77,402 수신기077 동작,402 화재29 환승통로P/T1-01 ,402-16 환승통로P/T1,1,Y,Y,,,,,
1294,402FIRE0781,fire,On,2,78,402 수신기078 동작,402 화재29 환승통로P/T1-01 ,402-16 환승통로P/T1,1,Y,Y,,,,,
1295,402FIRE0791,fire,On,2,79,402 수신기079 동작,402 화재30 환승통로P/T1-02 ,402-16 환승통로P/T1,2,Y,Y,,,,,
1296,402FIRE0801,fire,On,2,80,402 수신기080 동작,402 화재30 환승통로P/T1-02 ,402-16 환승통로P/T1,2,Y,Y,,,,,
1297,402FIRE0811,fire,On,2,81,402 수신기081 동작,402 화재31 환승통로P/T2-01 ,402-17 환승통로P/T2,1,Y,Y,,,,,
1298,402FIRE0821,fire,On,2,82,402 수신기082 동작,402 화재31 환승통로P/T2-01 ,402-17 환승통로P/T2,1,Y,Y,,,,,
1299,402FIRE0831,fire,On,2,83,402 수신기083 동작,402 화재32 환승통로P/T2-02 ,402-17 환승통로P/T2,2,Y,Y,,,,,
1300,402FIRE0841,fire,On,2,84,402 수신기084 동작,402 화재32 환승통로P/T2-02 ,402-17 환승통로P/T2,2,Y,Y,,,,,
1301,402FIRE0851,fire,On,2,85,402 수신기085 동작,402 화재01 P-U1 ,402-01 P-U1,,Y,Y,,,,,
1302,402FIRE0861,fire,On,2,86,402 수신기086 동작,402 화재01 P-U1 ,402-01 P-U1,,Y,Y,,,,,
1303,402FIRE0871,fire,On,2,87,402 수신기087 동작,402 화재01 P-U1 ,402-01 P-U1,,Y,Y,,,,,
1304,402FIRE0881,fire,On,2,88,402 수신기088 동작,402 화재02 P-U2 ,402-02 P-U2,,Y,Y,,,,,
1305,402FIRE0891,fire,On,2,89,402 수신기089 동작,402 화재02 P-U2 ,402-02 P-U2,,Y,Y,,,,,
1306,402FIRE0901,fire,On,2,90,402 수신기090 동작,402 화재02 P-U2 ,402-02 P-U2,,Y,Y,,,,,
1307,402FIRE0911,fire,On,2,91,402 수신기091 동작,402 화재02 P-U2 ,402-02 P-U2,,Y,Y,,,,,
1308,402FIRE0921,fire,On,2,92,402 수신기092 동작,402 화재04 P-D2 ,402-04 P-D2,,Y,Y,,,,,
1309,402FIRE0931,fire,On,2,93,402 수신기093 동작,402 화재04 P-D2 ,402-04 P-D2,,Y,Y,,,,,
1310,402FIRE0941,fire,On,2,94,402 수신기094 동작,402 화재04 P-D2 ,402-04 P-D2,,Y,Y,,,,,
1312,402FIRE0951,fire,On,2,95,402 수신기095 동작,402 화재03 P-D1 ,402-03 P-D1,,Y,Y,,,,,
1313,402FIRE0961,fire,On,2,96,402 수신기096 동작,402 화재03 P-D1 ,402-03 P-D1,,Y,Y,,,,,
1314,402FIRE0971,fire,On,2,97,402 수신기097 동작,402 화재03 P-D1 ,402-03 P-D1,,Y,Y,,,,,
1315,402FIRE0981,fire,On,2,98,402 수신기098 동작,402 화재03 P-D1 ,402-03 P-D1,,Y,Y,,,,,
1316,402FIRE0991,fire,On,2,99,402 수신기099 동작,402 화재22 대합실화재P/T1-02 ,402-14 대합실화재P/T1,2,Y,Y,,,,,
1317,402FIRE1001,fire,On,2,100,402 수신기100 동작,402 화재23 대합실화재P/T1-03 ,402-14 대합실화재P/T1,3,Y,Y,,,,,
1318,402FIRE1011,fire,On,2,101,402 수신기101 동작,402 화재14 E/L3호기-B1 ,402-24 E/L3호기-B1,,Y,Y,,,,,
1319,402FIRE1021,fire,On,2,102,402 수신기102 동작,402 화재25 대합실화재P/T1-05 ,402-14 대합실화재P/T1,4,Y,Y,,,,,
1320,402FIRE1081,fire,On,2,108,402 수신기108 동작,402 화재26 대합실화재P/T2-01 ,402-15 대합실화재P/T2,1,Y,Y,,,,,
1321,402FIRE1091,fire,On,2,109,402 수신기109 동작,402 화재26 대합실화재P/T2-01 ,402-15 대합실화재P/T2,1,Y,Y,,,,,
1322,402FIRE1101,fire,On,2,110,402 수신기110 동작,402 화재28 대합실화재P/T2-03 ,402-15 대합실화재P/T2,3,Y,Y,,,,,
1323,402FIRE1111,fire,On,2,111,402 수신기111 동작,402 화재29 환승통로P/T1-01 ,402-16 환승통로P/T1,1,Y,Y,,,,,
1324,402FIRE1121,fire,On,2,112,402 수신기112 동작,402 화재31 환승통로P/T2-01 ,402-17 환승통로P/T2,1,Y,Y,,,,,
1325,402FIRE1131,fire,On,2,113,402 수신기113 동작,402 화재32 환승통로P/T2-02 ,402-17 환승통로P/T2,2,Y,Y,,,,,
1326,402FIRE1141,fire,On,2,114,402 수신기114 동작,402 화재01 P-U1 ,402-01 P-U1,,Y,Y,,,,,
1327,402FIRE1151,fire,On,2,115,402 수신기115 동작,402 화재01 P-U1 ,402-01 P-U1,,Y,Y,,,,,
1328,402FIRE1161,fire,On,2,116,402 수신기116 동작,402 화재02 P-U2 ,402-02 P-U2,,Y,Y,,,,,
1329,402FIRE1171,fire,On,2,117,402 수신기117 동작,402 화재04 P-D2 ,402-04 P-D2,,Y,Y,,,,,
1330,402FIRE1181,fire,On,2,118,402 수신기118 동작,402 화재02 P-U2 ,402-02 P-U2,,Y,Y,,,,,
1331,402FIRE1191,fire,On,2,119,402 수신기119 동작,402 화재03 P-D1 ,402-03 P-D1,,Y,Y,,,,,
1332,402FIRE1201,fire,On,2,120,402 수신기120 동작,402 화재22 대합실화재P/T1-02 ,402-14 대합실화재P/T1,2,Y,Y,,,,,
1333,402FIRE1231,fire,On,2,123,402 수신기123 동작,402 화재01 P-U1 ,402-01 P-U1,,Y,Y,,,,,
1334,402FIRE1241,fire,On,2,124,402 수신기124 동작,402 화재04 P-D2 ,402-04 P-D2,,Y,Y,,,,,
1126,403FIRE0011,fire,On,3,1,403 수신기001 동작,403 화재24 대합실화재P/T2-01 ,403-12 대합실화재P/T2,1,Y,Y,,,,,
1128,403FIRE0021,fire,On,3,2,403 수신기002 동작,403 화재24 대합실화재P/T2-01 ,403-12 대합실화재P/T2,1,Y,Y,,,,,
1129,403FIRE0031,fire,On,3,3,403 수신기003 동작,403 화재24 대합실화재P/T2-01 ,403-12 대합실화재P/T2,1,Y,Y,,,,,
1130,403FIRE0041,fire,On,3,4,403 수신기004 동작,403 화재24 대합실화재P/T2-01 ,403-12 대합실화재P/T2,1,Y,Y,,,,,
1131,403FIRE0051,fire,On,3,5,403 수신기005 동작,403 화재24 대합실화재P/T2-01 ,403-12 대합실화재P/T2,1,Y,Y,,,,,
1132,403FIRE0061,fire,On,3,6,403 수신기006 동작,403 화재24 대합실화재P/T2-01 ,403-12 대합실화재P/T2,1,Y,Y,,,,,
1133,403FIRE0071,fire,On,3,7,403 수신기007 동작,403 화재24 대합실화재P/T2-01 ,403-12 대합실화재P/T2,1,Y,Y,,,,,
1134,403FIRE0081,fire,On,3,8,403 수신기008 동작,403 화재24 대합실화재P/T2-01 ,403-12 대합실화재P/T2,1,Y,Y,,,,,
1135,403FIRE0091,fire,On,3,9,403 수신기009 동작,403 화재24 대합실화재P/T2-01 ,403-12 대합실화재P/T2,1,Y,Y,,,,,
1136,403FIRE0101,fire,On,3,10,403 수신기010 동작,403 화재21 대합실화재P/T1-01 ,403-11 대합실화재P/T1,1,Y,Y,,,,,
1158,403FIRE0111,fire,On,3,11,403 수신기011 동작,403 화재22 대합실화재P/T1-02 ,403-11 대합실화재P/T1,2,Y,Y,,,,,
1159,403FIRE0121,fire,On,3,12,403 수신기012 동작,403 화재21 대합실화재P/T1-01 ,403-11 대합실화재P/T1,1,Y,Y,,,,,
1160,403FIRE0131,fire,On,3,13,403 수신기013 동작,403 화재22 대합실화재P/T1-02 ,403-11 대합실화재P/T1,2,Y,Y,,,,,
1161,403FIRE0141,fire,On,3,14,403 수신기014 동작,403 화재21 대합실화재P/T1-01 ,403-11 대합실화재P/T1,1,Y,Y,,,,,
1162,403FIRE0151,fire,On,3,15,403 수신기015 동작,403 화재22 대합실화재P/T1-02 ,403-11 대합실화재P/T1,2,Y,Y,,,,,
1163,403FIRE0161,fire,On,3,16,403 수신기016 동작,403 화재22 대합실화재P/T1-02 ,403-11 대합실화재P/T1,2,Y,Y,,,,,
1164,403FIRE0171,fire,On,3,17,403 수신기017 동작,403 화재24 대합실화재P/T2-01 ,403-12 대합실화재P/T2,1,Y,Y,,,,,
1165,403FIRE0181,fire,On,3,18,403 수신기018 동작,403 화재24 대합실화재P/T2-01 ,403-12 대합실화재P/T2,1,Y,Y,,,,,
1166,403FIRE0191,fire,On,3,19,403 수신기019 동작,403 화재23 대합실화재P/T1-03 ,403-11 대합실화재P/T1,3,Y,Y,,,,,
1167,403FIRE0201,fire,On,3,20,403 수신기020 동작,403 화재23 대합실화재P/T1-03 ,403-11 대합실화재P/T1,3,Y,Y,,,,,
1259,403FIRE0211,fire,On,3,21,403 수신기021 동작,403 화재25 대합실화재P/T2-02 ,403-12 대합실화재P/T2,2,Y,Y,,,,,
1260,403FIRE0221,fire,On,3,22,403 수신기022 동작,403 화재24 대합실화재P/T2-01 ,403-12 대합실화재P/T2,1,Y,Y,,,,,
1261,403FIRE0231,fire,On,3,23,403 수신기023 동작,403 화재25 대합실화재P/T2-02 ,403-12 대합실화재P/T2,2,Y,Y,,,,,
1262,403FIRE0241,fire,On,3,24,403 수신기024 동작,403 화재24 대합실화재P/T2-01 ,403-12 대합실화재P/T2,1,Y,Y,,,,,
1263,403FIRE0251,fire,On,3,25,403 수신기025 동작,403 화재22 대합실화재P/T1-02 ,403-11 대합실화재P/T1,2,Y,Y,,,,,
1311,403FIRE0261,fire,On,3,26,403 수신기026 동작,403 화재25 대합실화재P/T2-02 ,403-12 대합실화재P/T2,2,Y,Y,,,,,
1266,403FIRE0271,fire,On,3,27,403 수신기027 동작,403 화재24 대합실화재P/T2-01 ,403-12 대합실화재P/T2,1,Y,Y,,,,,
1267,403FIRE0281,fire,On,3,28,403 수신기028 동작,403 화재24 대합실화재P/T2-01 ,403-12 대합실화재P/T2,1,Y,Y,,,,,
1268,403FIRE0291,fire,On,3,29,403 수신기029 동작,403 화재25 대합실화재P/T2-02 ,403-12 대합실화재P/T2,2,Y,Y,,,,,
1269,403FIRE0301,fire,On,3,30,403 수신기030 동작,403 화재25 대합실화재P/T2-02 ,403-12 대합실화재P/T2,2,Y,Y,,,,,
1270,403FIRE0311,fire,On,3,31,403 수신기031 동작,403 화재25 대합실화재P/T2-02 ,403-12 대합실화재P/T2,2,Y,Y,,,,,
1271,403FIRE0321,fire,On,3,32,403 수신기032 동작,403 화재25 대합실화재P/T2-02 ,403-12 대합실화재P/T2,2,Y,Y,,,,,
1272,403FIRE0331,fire,On,3,33,403 수신기033 동작,403 화재25 대합실화재P/T2-02 ,403-12 대합실화재P/T2,2,Y,Y,,,,,
1273,403FIRE0341,fire,On,3,34,403 수신기034 동작,403 화재34 고객서비스센터 ,403-29 고객서비스센터,,Y,Y,,,,,
1274,403FIRE0351,fire,On,3,35,403 수신기035 동작,403 화재26 대합실화재P/T2-03 ,403-12 대합실화재P/T2,3,Y,Y,,,,,
1275,403FIRE0361,fire,On,3,36,403 수신기036 동작,403 화재26 대합실화재P/T2-03 ,403-12 대합실화재P/T2,3,Y,Y,,,,,
1276,403FIRE0371,fire,On,3,37,403 수신기037 동작,403 화재26 대합실화재P/T2-03 ,403-12 대합실화재P/T2,3,Y,Y,,,,,
1277,403FIRE0381,fire,On,3,38,403 수신기038 동작,403 화재26 대합실화재P/T2-03 ,403-12 대합실화재P/T2,3,Y,Y,,,,,
1278,403FIRE0391,fire,On,3,39,403 수신기039 동작,403 화재27 대합실화재P/T2-04 ,403-12 대합실화재P/T2,4,Y,Y,,,,,
1279,403FIRE0401,fire,On,3,40,403 수신기040 동작,403 화재27 대합실화재P/T2-04 ,403-12 대합실화재P/T2,4,Y,Y,,,,,
1335,403FIRE0411,fire,On,3,41,403 수신기041 동작,403 화재27 대합실화재P/T2-04 ,403-12 대합실화재P/T2,4,Y,Y,,,,,
1336,403FIRE0421,fire,On,3,42,403 수신기042 동작,403 화재26 대합실화재P/T2-03 ,403-12 대합실화재P/T2,3,Y,Y,,,,,
1337,403FIRE0431,fire,On,3,43,403 수신기043 동작,403 화재26 대합실화재P/T2-03 ,403-12 대합실화재P/T2,3,Y,Y,,,,,
1338,403FIRE0441,fire,On,3,44,403 수신기044 동작,403 화재28 대합실화재P/T2-05 ,403-12 대합실화재P/T2,5,Y,Y,,,,,
1339,403FIRE0451,fire,On,3,45,403 수신기045 동작,403 화재28 대합실화재P/T2-05 ,403-12 대합실화재P/T2,5,Y,Y,,,,,
1340,403FIRE0461,fire,On,3,46,403 수신기046 동작,403 화재24 대합실화재P/T2-01 ,403-12 대합실화재P/T2,1,Y,Y,,,,,
1341,403FIRE0471,fire,On,3,47,403 수신기047 동작,403 화재24 대합실화재P/T2-01 ,403-12 대합실화재P/T2,1,Y,Y,,,,,
1342,403FIRE0481,fire,On,3,48,403 수신기048 동작,403 화재24 대합실화재P/T2-01 ,403-12 대합실화재P/T2,1,Y,Y,,,,,
1343,403FIRE0491,fire,On,3,49,403 수신기049 동작,403 화재24 대합실화재P/T2-01 ,403-12 대합실화재P/T2,1,Y,Y,,,,,
1344,403FIRE0501,fire,On,3,50,403 수신기050 동작,403 화재24 대합실화재P/T2-01 ,403-12 대합실화재P/T2,1,Y,Y,,,,,
1345,403FIRE0511,fire,On,3,51,403 수신기051 동작,403 화재28 대합실화재P/T2-05 ,403-12 대합실화재P/T2,5,Y,Y,,,,,
1346,403FIRE0521,fire,On,3,52,403 수신기052 동작,403 화재28 대합실화재P/T2-05 ,403-12 대합실화재P/T2,5,Y,Y,,,,,
1347,403FIRE0531,fire,On,3,53,403 수신기053 동작,403 화재28 대합실화재P/T2-05 ,403-12 대합실화재P/T2,5,Y,Y,,,,,
1348,403FIRE0541,fire,On,3,54,403 수신기054 동작,403 화재28 대합실화재P/T2-05 ,403-12 대합실화재P/T2,5,Y,Y,,,,,
1349,403FIRE0551,fire,On,3,55,403 수신기055 동작,403 화재28 대합실화재P/T2-05 ,403-12 대합실화재P/T2,5,Y,Y,,,,,
1350,403FIRE0561,fire,On,3,56,403 수신기056 동작,403 화재28 대합실화재P/T2-05 ,403-12 대합실화재P/T2,5,Y,Y,,,,,
1351,403FIRE0571,fire,On,3,57,403 수신기057 동작,403 화재27 대합실화재P/T2-04 ,403-12 대합실화재P/T2,4,Y,Y,,,,,
1352,403FIRE0581,fire,On,3,58,403 수신기058 동작,403 화재27 대합실화재P/T2-04 ,403-12 대합실화재P/T2,4,Y,Y,,,,,
1353,403FIRE0591,fire,On,3,59,403 수신기059 동작,403 화재27 대합실화재P/T2-04 ,403-12 대합실화재P/T2,4,Y,Y,,,,,
1354,403FIRE0601,fire,On,3,60,403 수신기060 동작,403 화재27 대합실화재P/T2-04 ,403-12 대합실화재P/T2,4,Y,Y,,,,,
1355,403FIRE0611,fire,On,3,61,403 수신기061 동작,403 화재28 대합실화재P/T2-05 ,403-12 대합실화재P/T2,5,Y,Y,,,,,
1356,403FIRE0621,fire,On,3,62,403 수신기062 동작,403 화재27 대합실화재P/T2-04 ,403-12 대합실화재P/T2,4,Y,Y,,,,,
1357,403FIRE0711,fire,On,3,71,403 수신기071 동작,403 화재11 대합실화재 ,403-13 대합실화재,,Y,Y,,,,,
1358,403FIRE0721,fire,On,3,72,403 수신기072 동작,403 화재11 대합실화재 ,403-13 대합실화재,,Y,Y,,,,,
1359,403FIRE0731,fire,On,3,73,403 수신기073 동작,403 화재11 대합실화재 ,403-13 대합실화재,,Y,Y,,,,,
1360,403FIRE0741,fire,On,3,74,403 수신기074 동작,403 화재11 대합실화재 ,403-13 대합실화재,,Y,Y,,,,,
1361,403FIRE0751,fire,On,3,75,403 수신기075 동작,403 화재11 대합실화재 ,403-13 대합실화재,,Y,Y,,,,,
1362,403FIRE0761,fire,On,3,76,403 수신기076 동작,403 화재11 대합실화재 ,403-13 대합실화재,,Y,Y,,,,,
1363,403FIRE0771,fire,On,3,77,403 수신기077 동작,403 화재11 대합실화재 ,403-13 대합실화재,,Y,Y,,,,,
1364,403FIRE0781,fire,On,3,78,403 수신기078 동작,403 화재11 대합실화재 ,403-13 대합실화재,,Y,Y,,,,,
1365,403FIRE0791,fire,On,3,79,403 수신기079 동작,403 화재44 전기실P/T-04 ,403-32 전기실PT,4,Y,Y,,,,,
1366,403FIRE0801,fire,On,3,80,403 수신기080 동작,403 화재44 전기실P/T-04 ,403-32 전기실PT,4,Y,Y,,,,,
1367,403FIRE0811,fire,On,3,81,403 수신기081 동작,403 화재43 전기실P/T-03 ,403-32 전기실PT,3,Y,Y,,,,,
1368,403FIRE0841,fire,On,3,84,403 수신기084 동작,403 화재31 신호통신실P/T-01 ,403-31 신호통신실PT,1,Y,Y,,,,,
1369,403FIRE0851,fire,On,3,85,403 수신기085 동작,403 화재31 신호통신실P/T-01 ,403-31 신호통신실PT,1,Y,Y,,,,,
1370,403FIRE0861,fire,On,3,86,403 수신기086 동작,403 화재01 P-U1 ,403-01 P-U1,,Y,Y,,,,,
1371,403FIRE0871,fire,On,3,87,403 수신기087 동작,403 화재01 P-U1 ,403-01 P-U1,,Y,Y,,,,,
1372,403FIRE0881,fire,On,3,88,403 수신기088 동작,403 화재01 P-U1 ,403-01 P-U1,,Y,Y,,,,,
1373,403FIRE0891,fire,On,3,89,403 수신기089 동작,403 화재01 P-U1 ,403-01 P-U1,,Y,Y,,,,,
1374,403FIRE0901,fire,On,3,90,403 수신기090 동작,403 화재01 P-U1 ,403-01 P-U1,,Y,Y,,,,,
1375,403FIRE0911,fire,On,3,91,403 수신기091 동작,403 화재02 P-U2 ,403-02 P-U2,,Y,Y,,,,,
1376,403FIRE0921,fire,On,3,92,403 수신기092 동작,403 화재02 P-U2 ,403-02 P-U2,,Y,Y,,,,,
1377,403FIRE0931,fire,On,3,93,403 수신기093 동작,403 화재02 P-U2 ,403-02 P-U2,,Y,Y,,,,,
1378,403FIRE0941,fire,On,3,94,403 수신기094 동작,403 화재02 P-U2 ,403-02 P-U2,,Y,Y,,,,,
1379,403FIRE0951,fire,On,3,95,403 수신기095 동작,403 화재04 P-D2 ,403-04 P-D2,,Y,Y,,,,,
1380,403FIRE0961,fire,On,3,96,403 수신기096 동작,403 화재04 P-D2 ,403-04 P-D2,,Y,Y,,,,,
1381,403FIRE0971,fire,On,3,97,403 수신기097 동작,403 화재04 P-D2 ,403-04 P-D2,,Y,Y,,,,,
1382,403FIRE0981,fire,On,3,98,403 수신기098 동작,403 화재04 P-D2 ,403-04 P-D2,,Y,Y,,,,,
1383,403FIRE0991,fire,On,3,99,403 수신기099 동작,403 화재04 P-D2 ,403-04 P-D2,,Y,Y,,,,,
1384,403FIRE1001,fire,On,3,100,403 수신기100 동작,403 화재03 P-D1 ,403-03 P-D1,,Y,Y,,,,,
1386,403FIRE1011,fire,On,3,101,403 수신기101 동작,403 화재03 P-D1 ,403-03 P-D1,,Y,Y,,,,,
1387,403FIRE1021,fire,On,3,102,403 수신기102 동작,403 화재03 P-D1 ,403-03 P-D1,,Y,Y,,,,,
1388,403FIRE1031,fire,On,3,103,403 수신기103 동작,403 화재03 P-D1 ,403-03 P-D1,,Y,Y,,,,,
1389,403FIRE1041,fire,On,3,104,403 수신기104 동작,403 화재22 대합실화재P/T1-02 ,403-11 대합실화재P/T1,2,Y,Y,,,,,
1390,403FIRE1051,fire,On,3,105,403 수신기105 동작,403 화재24 대합실화재P/T2-01 ,403-12 대합실화재P/T2,1,Y,Y,,,,,
1391,403FIRE1061,fire,On,3,106,403 수신기106 동작,403 화재25 대합실화재P/T2-02 ,403-12 대합실화재P/T2,2,Y,Y,,,,,
1392,403FIRE1071,fire,On,3,107,403 수신기107 동작,403 화재27 대합실화재P/T2-04 ,403-12 대합실화재P/T2,4,Y,Y,,,,,
1393,403FIRE1081,fire,On,3,108,403 수신기108 동작,403 화재28 대합실화재P/T2-05 ,403-12 대합실화재P/T2,5,Y,Y,,,,,
1394,403FIRE1091,fire,On,3,109,403 수신기109 동작,403 화재24 대합실화재P/T2-01 ,403-12 대합실화재P/T2,1,Y,Y,,,,,
1395,403FIRE1111,fire,On,3,111,403 수신기111 동작,403 화재11 대합실화재 ,403-13 대합실화재,,Y,Y,,,,,
1396,403FIRE1121,fire,On,3,112,403 수신기112 동작,403 화재11 대합실화재 ,403-13 대합실화재,,Y,Y,,,,,
1397,403FIRE1141,fire,On,3,114,403 수신기114 동작,403 화재01 P-U1 ,403-01 P-U1,,Y,Y,,,,,
1398,403FIRE1151,fire,On,3,115,403 수신기115 동작,403 화재01 P-U1 ,403-01 P-U1,,Y,Y,,,,,
1399,403FIRE1161,fire,On,3,116,403 수신기116 동작,403 화재02 P-U2 ,403-02 P-U2,,Y,Y,,,,,
1400,403FIRE1171,fire,On,3,117,403 수신기117 동작,403 화재04 P-D2 ,403-04 P-D2,,Y,Y,,,,,
1401,403FIRE1181,fire,On,3,118,403 수신기118 동작,403 화재04 P-D2 ,403-04 P-D2,,Y,Y,,,,,
1402,403FIRE1191,fire,On,3,119,403 수신기119 동작,403 화재03 P-D1 ,403-03 P-D1,,Y,Y,,,,,
1403,403FIRE1231,fire,On,3,123,403 수신기123 동작,403 화재01 P-U1 ,403-01 P-U1,,Y,Y,,,,,
1404,403FIRE1241,fire,On,3,124,403 수신기124 동작,403 화재04 P-D2 ,403-04 P-D2,,Y,Y,,,,,
1089,404FIRE0021,fire,On,4,2,404 수신기002 동작,404 화재21 대합실화재PT-01 ,404-11 대합실화재PT,1,Y,Y,,,,,
1090,404FIRE0031,fire,On,4,3,404 수신기003 동작,404 화재21 대합실화재PT-01 ,404-11 대합실화재PT,1,Y,Y,,,,,
1091,404FIRE0041,fire,On,4,4,404 수신기004 동작,404 화재21 대합실화재PT-01 ,404-11 대합실화재PT,1,Y,Y,,,,,
1092,404FIRE0051,fire,On,4,5,404 수신기005 동작,404 화재21 대합실화재PT-01 ,404-11 대합실화재PT,1,Y,Y,,,,,
1093,404FIRE0061,fire,On,4,6,404 수신기006 동작,404 화재21 대합실화재PT-01 ,404-11 대합실화재PT,1,Y,Y,,,,,
1094,404FIRE0071,fire,On,4,7,404 수신기007 동작,404 화재21 대합실화재PT-01 ,404-11 대합실화재PT,1,Y,Y,,,,,
1095,404FIRE0081,fire,On,4,8,404 수신기008 동작,404 화재22 대합실화재PT-02 ,404-11 대합실화재PT,2,Y,Y,,,,,
1096,404FIRE0091,fire,On,4,9,404 수신기009 동작,404 화재24 대합실화재PT-04 ,404-11 대합실화재PT,4,Y,Y,,,,,
1097,404FIRE0101,fire,On,4,10,404 수신기010 동작,404 화재23 대합실화재PT-03 ,404-11 대합실화재PT,3,Y,Y,,,,,
1098,404FIRE0111,fire,On,4,11,404 수신기011 동작,404 화재23 대합실화재PT-03 ,404-11 대합실화재PT,3,Y,Y,,,,,
1099,404FIRE0121,fire,On,4,12,404 수신기012 동작,404 화재23 대합실화재PT-03 ,404-11 대합실화재PT,3,Y,Y,,,,,
1100,404FIRE0131,fire,On,4,13,404 수신기013 동작,404 화재23 대합실화재PT-03 ,404-11 대합실화재PT,3,Y,Y,,,,,
1101,404FIRE0141,fire,On,4,14,404 수신기014 동작,404 화재23 대합실화재PT-03 ,404-11 대합실화재PT,3,Y,Y,,,,,
1102,404FIRE0151,fire,On,4,15,404 수신기015 동작,404 화재23 대합실화재PT-03 ,404-11 대합실화재PT,3,Y,Y,,,,,
1103,404FIRE0161,fire,On,4,16,404 수신기016 동작,404 화재13 고객서비스센터 ,404-22 고객서비스센터,,Y,Y,,,,,
1104,404FIRE0171,fire,On,4,17,404 수신기017 동작,404 화재23 대합실화재PT-03 ,404-11 대합실화재PT,3,Y,Y,,,,,
1105,404FIRE0181,fire,On,4,18,404 수신기018 동작,404 화재23 대합실화재PT-03 ,404-11 대합실화재PT,3,Y,Y,,,,,
1106,404FIRE0191,fire,On,4,19,404 수신기019 동작,404 화재23 대합실화재PT-03 ,404-11 대합실화재PT,3,Y,Y,,,,,
1107,404FIRE0201,fire,On,4,20,404 수신기020 동작,404 화재23 대합실화재PT-03 ,404-11 대합실화재PT,3,Y,Y,,,,,
1108,404FIRE0291,fire,On,4,29,404 수신기029 동작,404 화재41 전기실PT-01 ,404-25 전기실PT,1,Y,Y,,,,,
1109,404FIRE0301,fire,On,4,30,404 수신기030 동작,404 화재41 전기실PT-01 ,404-25 전기실PT,1,Y,Y,,,,,
1110,404FIRE0311,fire,On,4,31,404 수신기031 동작,404 화재41 전기실PT-01 ,404-25 전기실PT,1,Y,Y,,,,,
1111,404FIRE0321,fire,On,4,32,404 수신기032 동작,404 화재41 전기실PT-01 ,404-25 전기실PT,1,Y,Y,,,,,
1112,404FIRE0331,fire,On,4,33,404 수신기033 동작,404 화재41 전기실PT-01 ,404-25 전기실PT,1,Y,Y,,,,,
1113,404FIRE0341,fire,On,4,34,404 수신기034 동작,404 화재12 대합실화재 ,404-12 대합실화재,,Y,Y,,,,,
1114,404FIRE0351,fire,On,4,35,404 수신기035 동작,404 화재12 대합실화재 ,404-12 대합실화재,,Y,Y,,,,,
1118,404FIRE0361,fire,On,4,36,404 수신기036 동작,404 화재12 대합실화재 ,404-12 대합실화재,,Y,Y,,,,,
1119,404FIRE0371,fire,On,4,37,404 수신기037 동작,404 화재12 대합실화재 ,404-12 대합실화재,,Y,Y,,,,,
1120,404FIRE0381,fire,On,4,38,404 수신기038 동작,404 화재12 대합실화재 ,404-12 대합실화재,,Y,Y,,,,,
1123,404FIRE0471,fire,On,4,47,404 수신기047 동작,404 화재01 P-U1 ,404-01 P-U1,,Y,Y,,,,,
1122,404FIRE0481,fire,On,4,48,404 수신기048 동작,404 화재04 P-D2 ,404-04 P-D2,,Y,Y,,,,,
1124,404FIRE0491,fire,On,4,49,404 수신기049 동작,404 화재01 P-U1 ,404-01 P-U1,,Y,Y,,,,,
1125,404FIRE0501,fire,On,4,50,404 수신기050 동작,404 화재01 P-U1 ,404-01 P-U1,,Y,Y,,,,,
1243,404FIRE0511,fire,On,4,51,404 수신기051 동작,404 화재04 P-D2 ,404-04 P-D2,,Y,Y,,,,,
1244,404FIRE0521,fire,On,4,52,404 수신기052 동작,404 화재02 P-U2 ,404-02 P-U2,,Y,Y,,,,,
1245,404FIRE0531,fire,On,4,53,404 수신기053 동작,404 화재02 P-U2 ,404-02 P-U2,,Y,Y,,,,,
1246,404FIRE0541,fire,On,4,54,404 수신기054 동작,404 화재03 P-D1 ,404-03 P-D1,,Y,Y,,,,,
1247,404FIRE0551,fire,On,4,55,404 수신기055 동작,404 화재25 대합실화재PT-05 ,404-11 대합실화재PT,5,Y,Y,,,,,
1248,404FIRE0561,fire,On,4,56,404 수신기056 동작,404 화재23 대합실화재PT-03 ,404-11 대합실화재PT,3,Y,Y,,,,,
1249,404FIRE0571,fire,On,4,57,404 수신기057 동작,404 화재23 대합실화재PT-03 ,404-11 대합실화재PT,3,Y,Y,,,,,
1250,404FIRE0581,fire,On,4,58,404 수신기058 동작,404 화재23 대합실화재PT-03 ,404-11 대합실화재PT,3,Y,Y,,,,,
1251,404FIRE0591,fire,On,4,59,404 수신기059 동작,404 화재12 대합실화재 ,404-12 대합실화재,,Y,Y,,,,,
1252,404FIRE0601,fire,On,4,60,404 수신기060 동작,404 화재12 대합실화재 ,404-12 대합실화재,,Y,Y,,,,,
1253,404FIRE0621,fire,On,4,62,404 수신기062 동작,404 화재01 P-U1 ,404-01 P-U1,,Y,Y,,,,,
1254,404FIRE0631,fire,On,4,63,404 수신기063 동작,404 화재02 P-U2 ,404-02 P-U2,,Y,Y,,,,,
1255,404FIRE0641,fire,On,4,64,404 수신기064 동작,404 화재21 대합실화재PT-01 ,404-11 대합실화재PT,1,Y,Y,,,,,
1257,404FIRE0671,fire,On,4,67,404 수신기067 동작,404 화재11 게이트7 ,404-05 게이트 7,,Y,Y,,,,,
1078,405FIRE0011,fire,On,5,1,405 수신기001 동작,405 화재21 대합실화재PT-01 ,405-11 대합실화재P/T,1,Y,Y,,,,,
1079,405FIRE0021,fire,On,5,2,405 수신기002 동작,405 화재21 대합실화재PT-01 ,405-11 대합실화재P/T,1,Y,Y,,,,,
1080,405FIRE0031,fire,On,5,3,405 수신기003 동작,405 화재21 대합실화재PT-01 ,405-11 대합실화재P/T,1,Y,Y,,,,,
1081,405FIRE0041,fire,On,5,4,405 수신기004 동작,405 화재21 대합실화재PT-01 ,405-11 대합실화재P/T,1,Y,Y,,,,,
1082,405FIRE0051,fire,On,5,5,405 수신기005 동작,405 화재21 대합실화재PT-01 ,405-11 대합실화재P/T,1,Y,Y,,,,,
1083,405FIRE0061,fire,On,5,6,405 수신기006 동작,405 화재21 대합실화재PT-01 ,405-11 대합실화재P/T,1,Y,Y,,,,,
1084,405FIRE0071,fire,On,5,7,405 수신기007 동작,405 화재21 대합실화재PT-01 ,405-11 대합실화재P/T,1,Y,Y,,,,,
1085,405FIRE0081,fire,On,5,8,405 수신기008 동작,405 화재22 대합실화재PT-02 ,405-11 대합실화재P/T,2,Y,Y,,,,,
1086,405FIRE0091,fire,On,5,9,405 수신기009 동작,405 화재12 고객서비스센터 ,405-27 고객서비스센터,,Y,Y,,,,,
1087,405FIRE0101,fire,On,5,10,405 수신기010 동작,405 화재24 대합실화재PT-04 ,405-11 대합실화재P/T,4,Y,Y,,,,,
1204,405FIRE0111,fire,On,5,11,405 수신기011 동작,405 화재13 발매기실 ,405-28 발매기실,,Y,Y,,,,,
1205,405FIRE0121,fire,On,5,12,405 수신기012 동작,405 화재23 대합실화재PT-03 ,405-11 대합실화재P/T,3,Y,Y,,,,,
1206,405FIRE0131,fire,On,5,13,405 수신기013 동작,405 화재23 대합실화재PT-03 ,405-11 대합실화재P/T,3,Y,Y,,,,,
1207,405FIRE0141,fire,On,5,14,405 수신기014 동작,405 화재23 대합실화재PT-03 ,405-11 대합실화재P/T,3,Y,Y,,,,,
1208,405FIRE0151,fire,On,5,15,405 수신기015 동작,405 화재23 대합실화재PT-03 ,405-11 대합실화재P/T,3,Y,Y,,,,,
1209,405FIRE0271,fire,On,5,27,405 수신기027 동작,405 화재42 변전소PT2-01 ,405-31 변전소P/T2,1,Y,Y,,,,,
1210,405FIRE0301,fire,On,5,30,405 수신기030 동작,405 화재31 신호통신실PT-01 ,405-29 신호통신실P/T,1,Y,Y,,,,,
1211,405FIRE0311,fire,On,5,31,405 수신기031 동작,405 화재32 신호통신실PT-02 ,405-29 신호통신실P/T,2,Y,Y,,,,,
1212,405FIRE0321,fire,On,5,32,405 수신기032 동작,405 화재11 대합실화재 ,405-12 대합실화재,,Y,Y,,,,,
1213,405FIRE0331,fire,On,5,33,405 수신기033 동작,405 화재11 대합실화재 ,405-12 대합실화재,,Y,Y,,,,,
1214,405FIRE0341,fire,On,5,34,405 수신기034 동작,405 화재11 대합실화재 ,405-12 대합실화재,,Y,Y,,,,,
1215,405FIRE0351,fire,On,5,35,405 수신기035 동작,405 화재11 대합실화재 ,405-12 대합실화재,,Y,Y,,,,,
1216,405FIRE0421,fire,On,5,42,405 수신기042 동작,405 화재01 P-U1 ,405-01 P-U1,,Y,Y,,,,,
1217,405FIRE0431,fire,On,5,43,405 수신기043 동작,405 화재01 P-U1 ,405-01 P-U1,,Y,Y,,,,,
1218,405FIRE0441,fire,On,5,44,405 수신기044 동작,405 화재01 P-U1 ,405-01 P-U1,,Y,Y,,,,,
1219,405FIRE0451,fire,On,5,45,405 수신기045 동작,405 화재02 P-U2 ,405-02 P-U2,,Y,Y,,,,,
1220,405FIRE0461,fire,On,5,46,405 수신기046 동작,405 화재02 P-U2 ,405-02 P-U2,,Y,Y,,,,,
1221,405FIRE0471,fire,On,5,47,405 수신기047 동작,405 화재04 P-D2 ,405-04 P-D2,,Y,Y,,,,,
1222,405FIRE0481,fire,On,5,48,405 수신기048 동작,405 화재04 P-D2 ,405-04 P-D2,,Y,Y,,,,,
1223,405FIRE0491,fire,On,5,49,405 수신기049 동작,405 화재04 P-D2 ,405-04 P-D2,,Y,Y,,,,,
1224,405FIRE0501,fire,On,5,50,405 수신기050 동작,405 화재03 P-D1 ,405-03 P-D1,,Y,Y,,,,,
1225,405FIRE0511,fire,On,5,51,405 수신기051 동작,405 화재03 P-D1 ,405-03 P-D1,,Y,Y,,,,,
1226,405FIRE0521,fire,On,5,52,405 수신기052 동작,405 화재21 대합실화재PT-01 ,405-11 대합실화재P/T,1,Y,Y,,,,,
1227,405FIRE0531,fire,On,5,53,405 수신기053 동작,405 화재23 대합실화재PT-03 ,405-11 대합실화재P/T,3,Y,Y,,,,,
1228,405FIRE0541,fire,On,5,54,405 수신기054 동작,405 화재41 변전소P/T1-01 ,405-30 변전소P/T1,1,Y,Y,,,,,
1229,405FIRE0551,fire,On,5,55,405 수신기055 동작,405 화재22 대합실화재PT-02 ,405-11 대합실화재P/T,2,Y,Y,,,,,
1230,405FIRE0561,fire,On,5,56,405 수신기056 동작,405 화재11 대합실화재 ,405-12 대합실화재,,Y,Y,,,,,
1231,405FIRE0571,fire,On,5,57,405 수신기057 동작,405 화재11 대합실화재 ,405-12 대합실화재,,Y,Y,,,,,
1232,405FIRE0591,fire,On,5,59,405 수신기059 동작,405 화재01 P-U1 ,405-01 P-U1,,Y,Y,,,,,
1233,405FIRE0601,fire,On,5,60,405 수신기060 동작,405 화재01 P-U1 ,405-01 P-U1,,Y,Y,,,,,
1235,405FIRE0611,fire,On,5,61,405 수신기061 동작,405 화재02 P-U2 ,405-02 P-U2,,Y,Y,,,,,
1236,405FIRE0621,fire,On,5,62,405 수신기062 동작,405 화재04 P-D2 ,405-04 P-D2,,Y,Y,,,,,
1237,405FIRE0631,fire,On,5,63,405 수신기063 동작,405 화재04 P-D2 ,405-04 P-D2,,Y,Y,,,,,
1238,405FIRE0641,fire,On,5,64,405 수신기064 동작,405 화재03 P-D1 ,405-03 P-D1,,Y,Y,,,,,
1239,405FIRE0651,fire,On,5,65,405 수신기065 동작,405 화재21 대합실화재PT-01 ,405-11 대합실화재P/T,1,Y,Y,,,,,
1240,405FIRE0671,fire,On,5,67,405 수신기067 동작,405 화재01 P-U1 ,405-01 P-U1,,Y,Y,,,,,
1241,405FIRE0681,fire,On,5,68,405 수신기068 동작,405 화재04 P-D2 ,405-04 P-D2,,Y,Y,,,,,
1242,405FIRE0751,fire,On,5,75,405 수신기075 동작,405 화재23 대합실화재PT-03 ,405-11 대합실화재P/T,3,Y,Y,,,,,
1027,406FIRE0031,fire,On,6,3,406 수신기003 동작,406 화재21 대합실화재PT-01 ,406-11 대합실화재P/T,1,Y,Y,,,,,
1029,406FIRE0041,fire,On,6,4,406 수신기004 동작,406 화재21 대합실화재PT-01 ,406-11 대합실화재P/T,1,Y,Y,,,,,
1030,406FIRE0051,fire,On,6,5,406 수신기005 동작,406 화재22 대합실화재PT-02 ,406-11 대합실화재P/T,2,Y,Y,,,,,
1031,406FIRE0061,fire,On,6,6,406 수신기006 동작,406 화재22 대합실화재PT-02 ,406-11 대합실화재P/T,2,Y,Y,,,,,
1032,406FIRE0071,fire,On,6,7,406 수신기007 동작,406 화재12 고객안내센터 ,406-27 고객서비스센터,,Y,Y,,,,,
1033,406FIRE0081,fire,On,6,8,406 수신기008 동작,406 화재13 발매기실 ,406-28 발매기실,,Y,Y,,,,,
1034,406FIRE0091,fire,On,6,9,406 수신기009 동작,406 화재23 대합실화재PT-03 ,406-11 대합실화재P/T,3,Y,Y,,,,,
1035,406FIRE0101,fire,On,6,10,406 수신기010 동작,406 화재23 대합실화재PT-03 ,406-11 대합실화재P/T,3,Y,Y,,,,,
1036,406FIRE0111,fire,On,6,11,406 수신기011 동작,406 화재21 대합실화재PT-01 ,406-11 대합실화재P/T,1,Y,Y,,,,,
1037,406FIRE0121,fire,On,6,12,406 수신기012 동작,406 화재21 대합실화재PT-01 ,406-11 대합실화재P/T,1,Y,Y,,,,,
1038,406FIRE0131,fire,On,6,13,406 수신기013 동작,406 화재21 대합실화재PT-01 ,406-11 대합실화재P/T,1,Y,Y,,,,,
1039,406FIRE0141,fire,On,6,14,406 수신기014 동작,406 화재24 대합실화재PT-04 ,406-11 대합실화재P/T,4,Y,Y,,,,,
1040,406FIRE0151,fire,On,6,15,406 수신기015 동작,406 화재24 대합실화재PT-04 ,406-11 대합실화재P/T,4,Y,Y,,,,,
1041,406FIRE0161,fire,On,6,16,406 수신기016 동작,406 화재24 대합실화재PT-04 ,406-11 대합실화재P/T,4,Y,Y,,,,,
1042,406FIRE0171,fire,On,6,17,406 수신기017 동작,406 화재24 대합실화재PT-04 ,406-11 대합실화재P/T,4,Y,Y,,,,,
1043,406FIRE0181,fire,On,6,18,406 수신기018 수신,406 화재24 대합실화재PT-04 ,406-11 대합실화재P/T,4,Y,Y,,,,,
1044,406FIRE0191,fire,On,6,19,406 수신기019 동작,406 화재24 대합실화재PT-04 ,406-11 대합실화재P/T,4,Y,Y,,,,,
1045,406FIRE0201,fire,On,6,20,406 수신기020 동작,406 화재24 대합실화재PT-04 ,406-11 대합실화재P/T,4,Y,Y,,,,,
1046,406FIRE0211,fire,On,6,21,406 수신기021 동작,406 화재24 대합실화재PT-04 ,406-11 대합실화재P/T,4,Y,Y,,,,,
1047,406FIRE0221,fire,On,6,22,406 수신기022 동작,406 화재24 대합실화재PT-04 ,406-11 대합실화재P/T,4,Y,Y,,,,,
1048,406FIRE0231,fire,On,6,23,406 수신기023 동작,406 화재24 대합실화재PT-04 ,406-11 대합실화재P/T,4,Y,Y,,,,,
1049,406FIRE0241,fire,On,6,24,406 수신기024 동작,406 화재24 대합실화재PT-04 ,406-11 대합실화재P/T,4,Y,Y,,,,,
1050,406FIRE0251,fire,On,6,25,406 수신기025 동작,406 화재24 대합실화재PT-04 ,406-11 대합실화재P/T,4,Y,Y,,,,,
1051,406FIRE0261,fire,On,6,26,406 수신기026 동작,406 화재24 대합실화재PT-04 ,406-11 대합실화재P/T,4,Y,Y,,,,,
1052,406FIRE0271,fire,On,6,27,406 수신기027 동작,406 화재24 대합실화재PT-04 ,406-11 대합실화재P/T,4,Y,Y,,,,,
1053,406FIRE0281,fire,On,6,28,406 수신기028 동작,406 화재24 대합실화재PT-04 ,406-11 대합실화재P/T,4,Y,Y,,,,,
1054,406FIRE0291,fire,On,6,29,406 수신기029 동작,406 화재24 대합실화재PT-04 ,406-11 대합실화재P/T,4,Y,Y,,,,,
1055,406FIRE0301,fire,On,6,30,406 수신기030 동작,406 화재42 전기실PT-02 ,406-30 전기실PT,2,Y,Y,,,,,
1056,406FIRE0311,fire,On,6,31,406 수신기031 동작,406 화재41 전기실PT-01 ,406-30 전기실PT,1,Y,Y,,,,,
1057,406FIRE0321,fire,On,6,32,406 수신기032 동작,406 화재41 전기실PT-01 ,406-30 전기실PT,1,Y,Y,,,,,
1058,406FIRE0331,fire,On,6,33,406 수신기033 동작,406 화재31 신호통신실PT-01 ,406-29 신호통신실P/T,1,Y,Y,,,,,
1059,406FIRE0341,fire,On,6,34,406 수신기034 동작,406 화재31 신호통신실PT-01 ,406-29 신호통신실P/T,1,Y,Y,,,,,
1060,406FIRE0351,fire,On,6,35,406 수신기035 동작,406 화재31 신호통신실PT-01 ,406-29 신호통신실P/T,1,Y,Y,,,,,
1061,406FIRE0361,fire,On,6,36,406 수신기036 동작,406 화재11 대합실화재 ,406-12 대합실화재,,Y,Y,,,,,
1062,406FIRE0371,fire,On,6,37,406 수신기037 동작,406 화재11 대합실화재 ,406-12 대합실화재,,Y,Y,,,,,
1063,406FIRE0381,fire,On,6,38,406 수신기038 동작,406 화재11 대합실화재 ,406-12 대합실화재,,Y,Y,,,,,
1064,406FIRE0391,fire,On,6,39,406 수신기039 동작,406 화재11 대합실화재 ,406-12 대합실화재,,Y,Y,,,,,
1065,406FIRE0461,fire,On,6,46,406 수신기046 동작,406 화재01 P-U1 ,406-01 P-U1,,Y,Y,,,,,
1066,406FIRE0471,fire,On,6,47,406 수신기047 동작,406 화재01 P-U1 ,406-01 P-U1,,Y,Y,,,,,
1067,406FIRE0481,fire,On,6,48,406 수신기048 동작,406 화재01 P-U1 ,406-01 P-U1,,Y,Y,,,,,
1068,406FIRE0491,fire,On,6,49,406 수신기049 동작,406 화재02 P-U2 ,406-02 P-U2,,Y,Y,,,,,
1069,406FIRE0501,fire,On,6,50,406 수신기050 동작,406 화재02 P-U2 ,406-02 P-U2,,Y,Y,,,,,
1070,406FIRE0511,fire,On,6,51,406 수신기051 동작,406 화재02 P-U2 ,406-02 P-U2,,Y,Y,,,,,
1071,406FIRE0521,fire,On,6,52,406 수신기052 동작,406 화재04 P-D2 ,406-04 P-D2,,Y,Y,,,,,
1072,406FIRE0531,fire,On,6,53,406 수신기053 동작,406 화재04 P-D2 ,406-04 P-D2,,Y,Y,,,,,
1073,406FIRE0541,fire,On,6,54,406 수신기054 동작,406 화재04 P-D2 ,406-04 P-D2,,Y,Y,,,,,
1074,406FIRE0551,fire,On,6,55,406 수신기055 동작,406 화재03 P-D1 ,406-03 P-D1,,Y,Y,,,,,
1075,406FIRE0561,fire,On,6,56,406 수신기056 동작,406 화재03 P-D1 ,406-03 P-D1,,Y,Y,,,,,
1076,406FIRE0571,fire,On,6,57,406 수신기057 동작,406 화재03 P-D1 ,406-03 P-D1,,Y,Y,,,,,
1077,406FIRE0581,fire,On,6,58,406 수신기058 동작,406 화재23 대합실화재PT-03 ,406-11 대합실화재P/T,3,Y,Y,,,,,
1190,406FIRE0591,fire,On,6,59,406 수신기059 동작,406 화재22 대합실화재PT-02 ,406-11 대합실화재P/T,2,Y,Y,,,,,
1191,406FIRE0601,fire,On,6,60,406 수신기060 동작,406 화재24 대합실화재PT-04 ,406-11 대합실화재P/T,4,Y,Y,,,,,
1192,406FIRE0611,fire,On,6,61,406 수신기061 동작,406 화재24 대합실화재PT-04 ,406-11 대합실화재P/T,4,Y,Y,,,,,
1193,406FIRE0621,fire,On,6,62,406 수신기062 동작,406 화재24 대합실화재PT-04 ,406-11 대합실화재P/T,4,Y,Y,,,,,
1194,406FIRE0631,fire,On,6,63,406 수신기063 동작,406 화재11 대합실화재 ,406-12 대합실화재,,Y,Y,,,,,
1195,406FIRE0641,fire,On,6,64,406 수신기064 동작,406 화재11 대합실화재 ,406-12 대합실화재,,Y,Y,,,,,
1196,406FIRE0651,fire,On,6,65,406 수신기065 동작,406 화재11 대합실화재 ,406-12 대합실화재,,Y,Y,,,,,
1197,406FIRE0661,fire,On,6,66,406 수신기066 동작,406 화재01 P-U1 ,406-01 P-U1,,Y,Y,,,,,
1198,406FIRE0671,fire,On,6,67,406 수신기067 동작,406 화재01 P-U1 ,406-01 P-U1,,Y,Y,,,,,
1199,406FIRE0681,fire,On,6,68,406 수신기068 동작,406 화재02 P-U2 ,406-02 P-U2,,Y,Y,,,,,
1200,406FIRE0691,fire,On,6,69,406 수신기069 동작,406 화재04 P-D2 ,406-04 P-D2,,Y,Y,,,,,
1201,406FIRE0701,fire,On,6,70,406 수신기070 동작,406 화재04 P-D2 ,406-04 P-D2,,Y,Y,,,,,
1202,406FIRE0711,fire,On,6,71,406 수신기071 동작,406 화재03 P-D1 ,406-03 P-D1,,Y,Y,,,,,
1203,406FIRE0761,fire,On,6,76,406 수신기076 동작,406 화재22 대합실화재PT-02 ,406-11 대합실화재P/T,2,Y,Y,,,,,
956,407FIRE0051,fire,On,7,5,407 수신기05 동작,407 화재21 대합실화재PT-01 ,407-11 대합실화재P/T,1,Y,Y,,,,,
957,407FIRE0061,fire,On,7,6,407 수신기06 동작,407 화재21 대합실화재PT-01 ,407-11 대합실화재P/T,1,Y,Y,,,,,
958,407FIRE0071,fire,On,7,7,407 수신기07 동작,407 화재13 발매기실 ,407-28 발매기실,,Y,Y,,,,,
959,407FIRE0081,fire,On,7,8,407 수신기08 동작,407 화재22 대합실화재PT-02 ,407-11 대합실화재P/T,2,Y,Y,,,,,
960,407FIRE0091,fire,On,7,9,407 수신기09 동작,407 화재23 대합실화재PT-03 ,407-11 대합실화재P/T,3,Y,Y,,,,,
961,407FIRE0101,fire,On,7,10,407 수신기10 동작,407 화재02 P-U2 ,407-02 P-U2,,Y,Y,,,,,
962,407FIRE0111,fire,On,7,11,407 수신기11 동작,407 화재01 P-U1 ,407-01 P-U1,,Y,Y,,,,,
963,407FIRE0121,fire,On,7,12,407 수신기12 동작,407 화재23 대합실화재PT-03 ,407-11 대합실화재P/T,3,Y,Y,,,,,
964,407FIRE0131,fire,On,7,13,407 수신기13 동작,407 화재24 대합실화재PT-04 ,407-11 대합실화재P/T,4,Y,Y,,,,,
965,407FIRE0141,fire,On,7,14,407 수신기14 동작,407 화재24 대합실화재PT-04 ,407-11 대합실화재P/T,4,Y,Y,,,,,
966,407FIRE0151,fire,On,7,15,407 수신기15 동작,407 화재24 대합실화재PT-04 ,407-11 대합실화재P/T,4,Y,Y,,,,,
967,407FIRE0161,fire,On,7,16,407 수신기16 동작,407 화재24 대합실화재PT-04 ,407-11 대합실화재P/T,4,Y,Y,,,,,
968,407FIRE0171,fire,On,7,17,407 수신기17 동작,407 화재24 대합실화재PT-04 ,407-11 대합실화재P/T,4,Y,Y,,,,,
969,407FIRE0181,fire,On,7,18,407 수신기18 동작,407 화재24 대합실화재PT-04 ,407-11 대합실화재P/T,4,Y,Y,,,,,
970,407FIRE0251,fire,On,7,25,407 수신기25 동작,407 화재11 대합실화재 ,407-12 대합실화재,,Y,Y,,,,,
971,407FIRE0261,fire,On,7,26,407 수신기26 동작,407 화재11 대합실화재 ,407-12 대합실화재,,Y,Y,,,,,
972,407FIRE0271,fire,On,7,27,407 수신기27 동작,407 화재11 대합실화재 ,407-12 대합실화재,,Y,Y,,,,,
973,407FIRE0281,fire,On,7,28,407 수신기28 동작,407 화재11 대합실화재 ,407-12 대합실화재,,Y,Y,,,,,
974,407FIRE0291,fire,On,7,29,407 수신기29 동작,407 화재11 대합실화재 ,407-12 대합실화재,,Y,Y,,,,,
975,407FIRE0301,fire,On,7,30,407 수신기30 동작,407 화재11 대합실화재 ,407-12 대합실화재,,Y,Y,,,,,
976,407FIRE0311,fire,On,7,31,407 수신기31 동작,407 화재11 대합실화재 ,407-12 대합실화재,,Y,Y,,,,,
977,407FIRE0321,fire,On,7,32,407 수신기32 동작,407 화재11 대합실화재 ,407-12 대합실화재,,Y,Y,,,,,
978,407FIRE0331,fire,On,7,33,407 수신기33 동작,407 화재41 전기실PT-01 ,407-30 전기실P/T,1,Y,Y,,,,,
979,407FIRE0341,fire,On,7,34,407 수신기34 동작,407 화재41 전기실PT-01 ,407-30 전기실P/T,1,Y,Y,,,,,
980,407FIRE0351,fire,On,7,35,407 수신기35 동작,407 화재41 전기실PT-01 ,407-30 전기실P/T,1,Y,Y,,,,,
981,407FIRE0361,fire,On,7,36,407 수신기36 동작,407 화재31 신호통신실PT-01 ,407-29 신호통신실P/T,1,Y,Y,,,,,
982,407FIRE0371,fire,On,7,37,407 수신기37 동작,407 화재31 신호통신실PT-01 ,407-29 신호통신실P/T,1,Y,Y,,,,,
983,407FIRE0381,fire,On,7,38,407 수신기38 동작,407 화재31 신호통신실PT-01 ,407-29 신호통신실P/T,1,Y,Y,,,,,
984,407FIRE0391,fire,On,7,39,407 수신기39 동작,407 화재02 P-U2 ,407-02 P-U2,,Y,Y,,,,,
985,407FIRE0401,fire,On,7,40,407 수신기40 동작,407 화재02 P-U2 ,407-02 P-U2,,Y,Y,,,,,
986,407FIRE0411,fire,On,7,41,407 수신기41 동작,407 화재01 P-U1 ,407-01 P-U1,,Y,Y,,,,,
987,407FIRE0421,fire,On,7,42,407 수신기42 동작,407 화재01 P-U1 ,407-01 P-U1,,Y,Y,,,,,
988,407FIRE0431,fire,On,7,43,407 수신기43 동작,407 화재26 대합실화재PT-06 ,407-11 대합실화재P/T,6,Y,Y,,,,,
989,407FIRE0441,fire,On,7,44,407 수신기44 동작,407 화재26 대합실화재PT-06 ,407-11 대합실화재P/T,6,Y,Y,,,,,
990,407FIRE0451,fire,On,7,45,407 수신기45 동작,407 화재26 대합실화재PT-06 ,407-11 대합실화재P/T,6,Y,Y,,,,,
991,407FIRE0461,fire,On,7,46,407 수신기46 동작,407 화재26 대합실화재PT-06 ,407-11 대합실화재P/T,6,Y,Y,,,,,
992,407FIRE0471,fire,On,7,47,407 수신기47 동작,407 화재21 대합실화재PT-01 ,407-11 대합실화재P/T,1,Y,Y,,,,,
993,407FIRE0481,fire,On,7,48,407 수신기48 동작,407 화재21 대합실화재PT-01 ,407-11 대합실화재P/T,1,Y,Y,,,,,
994,407FIRE0491,fire,On,7,49,407 수신기49 동작,407 화재21 대합실화재PT-01 ,407-11 대합실화재P/T,1,Y,Y,,,,,
995,407FIRE0501,fire,On,7,50,407 수신기50 동작,407 화재21 대합실화재PT-01 ,407-11 대합실화재P/T,1,Y,Y,,,,,
996,407FIRE0511,fire,On,7,51,407 수신기51 동작,407 화재21 대합실화재PT-01 ,407-11 대합실화재P/T,1,Y,Y,,,,,
997,407FIRE0521,fire,On,7,52,407 수신기52 동작,407 화재26 대합실화재PT-06 ,407-11 대합실화재P/T,6,Y,Y,,,,,
998,407FIRE0531,fire,On,7,53,407 수신기53 동작,407 화재21 대합실화재PT-01 ,407-11 대합실화재P/T,1,Y,Y,,,,,
999,407FIRE0541,fire,On,7,54,407 수신기54 동작,407 화재26 대합실화재PT-06 ,407-11 대합실화재P/T,6,Y,Y,,,,,
1000,407FIRE0551,fire,On,7,55,407 수신기55 동작,407 화재12 고객서비스센터 ,407-27 고객서비스센터,,Y,Y,,,,,
1002,407FIRE0561,fire,On,7,56,407 수신기56 동작,407 화재25 대합실화재PT-05 ,407-11 대합실화재P/T,5,Y,Y,,,,,
1003,407FIRE0571,fire,On,7,57,407 수신기57 동작,407 화재25 대합실화재PT-05 ,407-11 대합실화재P/T,5,Y,Y,,,,,
1004,407FIRE0581,fire,On,7,58,407 수신기58 동작,407 화재03 P-D1 ,407-03 P-D1,,Y,Y,,,,,
1005,407FIRE0591,fire,On,7,59,407 수신기59 동작,407 화재03 P-D1 ,407-03 P-D1,,Y,Y,,,,,
1006,407FIRE0601,fire,On,7,60,407 수신기60 동작,407 화재04 P-D2 ,407-04 P-D2,,Y,Y,,,,,
1007,407FIRE0611,fire,On,7,61,407 수신기61 동작,407 화재04 P-D2 ,407-04 P-D2,,Y,Y,,,,,
1008,407FIRE0621,fire,On,7,62,407 수신기62 동작,407 화재03 P-D1 ,407-03 P-D1,,Y,Y,,,,,
1009,407FIRE0631,fire,On,7,63,407 수신기63 동작,407 화재04 P-D2 ,407-04 P-D2,,Y,Y,,,,,
1010,407FIRE0641,fire,On,7,64,407 수신기64 동작,407 화재23 대합실화재PT-03 ,407-11 대합실화재P/T,3,Y,Y,,,,,
1011,407FIRE0651,fire,On,7,65,407 수신기65 동작,407 화재21 대합실화재PT-01 ,407-11 대합실화재P/T,1,Y,Y,,,,,
1012,407FIRE0671,fire,On,7,67,407 수신기67 동작,407 화재11 대합실화재 ,407-12 대합실화재,,Y,Y,,,,,
1013,407FIRE0681,fire,On,7,68,407 수신기68 동작,407 화재11 대합실화재 ,407-12 대합실화재,,Y,Y,,,,,
1014,407FIRE0691,fire,On,7,69,407 수신기69 동작,407 화재11 대합실화재 ,407-12 대합실화재,,Y,Y,,,,,
1015,407FIRE0701,fire,On,7,70,407 수신기70 동작,407 화재02 P-U2 ,407-02 P-U2,,Y,Y,,,,,
1016,407FIRE0711,fire,On,7,71,407 수신기71 동작,407 화재01 P-U1 ,407-01 P-U1,,Y,Y,,,,,
1017,407FIRE0721,fire,On,7,72,407 수신기72 동작,407 화재01 P-U1 ,407-01 P-U1,,Y,Y,,,,,
1018,407FIRE0731,fire,On,7,73,407 수신기73 동작,407 화재26 대합실화재PT-06 ,407-11 대합실화재P/T,6,Y,Y,,,,,
1019,407FIRE0741,fire,On,7,74,407 수신기74 동작,407 화재26 대합실화재PT-06 ,407-11 대합실화재P/T,6,Y,Y,,,,,
1020,407FIRE0751,fire,On,7,75,407 수신기75 동작,407 화재03 P-D1 ,407-03 P-D1,,Y,Y,,,,,
1021,407FIRE0761,fire,On,7,76,407 수신기76 동작,407 화재04 P-D2 ,407-04 P-D2,,Y,Y,,,,,
1022,407FIRE0771,fire,On,7,77,407 수신기77 동작,407 화재04 P-D2 ,407-04 P-D2,,Y,Y,,,,,
1023,407FIRE0781,fire,On,7,78,407 수신기78 동작,407 화재24 대합실화재PT-04 ,407-11 대합실화재P/T,4,Y,Y,,,,,
1024,407FIRE0801,fire,On,7,80,407 수신기80 동작,407 화재01 P-U1 ,407-01 P-U1,,Y,Y,,,,,
1025,407FIRE0811,fire,On,7,81,407 수신기81 동작,407 화재02 P-U2 ,407-02 P-U2,,Y,Y,,,,,
1026,407FIRE0821,fire,On,7,82,407 수신기82 동작,407 화재26 대합실화재PT-06 ,407-11 대합실화재P/T,6,Y,Y,,,,,
690,408FIRE0011,fire,On,8,1,408 수신기01 동작,408 화재42 변전소P/T2-01 ,408-26 변전소P/T2,1,Y,Y,,,,,
691,408FIRE0021,fire,On,8,2,408 수신기02 동작,408 화재42 변전소P/T2-01 ,408-26 변전소P/T2,1,Y,Y,,,,,
692,408FIRE0031,fire,On,8,3,408 수신기03 동작,408 화재42 변전소P/T2-01 ,408-26 변전소P/T2,1,Y,Y,,,,,
693,408FIRE0041,fire,On,8,4,408 수신기04 동작,408 화재21 대합실화재PT-01 ,408-11 대합실화재P/T,1,Y,Y,,,,,
694,408FIRE0051,fire,On,8,5,408 수신기05 동작,408 화재21 대합실화재PT-01 ,408-11 대합실화재P/T,1,Y,Y,,,,,
695,408FIRE0061,fire,On,8,6,408 수신기06 동작,408 화재42 변전소P/T2-01 ,408-26 변전소P/T2,1,Y,Y,,,,,
696,408FIRE0131,fire,On,8,13,408 수신기13 동작,408 화재21 대합실화재PT-01 ,408-11 대합실화재P/T,1,Y,Y,,,,,
697,408FIRE0141,fire,On,8,14,408 수신기14 동작,408 화재21 대합실화재PT-01 ,408-11 대합실화재P/T,1,Y,Y,,,,,
698,408FIRE0151,fire,On,8,15,408 수신기15 동작,408 화재21 대합실화재PT-01 ,408-11 대합실화재P/T,1,Y,Y,,,,,
1407,408FIRE0161,fire,On,8,16,408 수신기16 동작,408 화재21 대합실화재PT-01 ,408-11 대합실화재P/T,1,Y,Y,,,,,
1408,408FIRE0171,fire,On,8,17,408 수신기17동작,408 화재15 고객서비스센터 ,408-22 고객서비스센터,,Y,Y,,,,,
1409,408FIRE0181,fire,On,8,18,408 수신기18 동작,408 화재16 발매기실 ,408-23 발매기실,,Y,Y,,,,,
1410,408FIRE0191,fire,On,8,19,408 수신기19 동작,408 화재12 2/4출입구 ,408-09 2/4출입구,,Y,Y,,,,,
1411,408FIRE0201,fire,On,8,20,408 수신기20 동작,408 화재12 2/4출입구 ,408-09 2/4출입구,,Y,Y,,,,,
1412,408FIRE0211,fire,On,8,21,408 수신기21 동작,408 화재11 1/3출입구 ,408-08 1/3출입구,,Y,Y,,,,,
1413,408FIRE0221,fire,On,8,22,408 수신기22 동작,408 화재11 1/3출입구 ,408-08 1/3출입구,,Y,Y,,,,,
1414,408FIRE0231,fire,On,8,23,408 수신기23 동작,408 화재13 화장실 ,408-10 화장실,,Y,Y,,,,,
1415,408FIRE0241,fire,On,8,24,408 수신기24 동작,408 화재13 화장실 ,408-10 화장실,,Y,Y,,,,,
1416,408FIRE0251,fire,On,8,25,408 수신기25 동작,408 화재13 화장실 ,408-10 화장실,,Y,Y,,,,,
1417,408FIRE0261,fire,On,8,26,408 수신기26 동작,408 화재12 2/4출입구 ,408-09 2/4출입구,,Y,Y,,,,,
1418,408FIRE0401,fire,On,8,40,408 수신기40 동작,408 화재14 대합실화재 ,408-12 대합실화재,,Y,Y,,,,,
1419,408FIRE0411,fire,On,8,41,408 수신기41 동작,408 화재14 대합실화재 ,408-12 대합실화재,,Y,Y,,,,,
1420,408FIRE0421,fire,On,8,42,408 수신기42 동작,408 화재14 대합실화재 ,408-12 대합실화재,,Y,Y,,,,,
1421,408FIRE0431,fire,On,8,43,408 수신기43 동작,408 화재14 대합실화재 ,408-12 대합실화재,,Y,Y,,,,,
1422,408FIRE0441,fire,On,8,44,408 수신기44 동작,408 화재14 대합실화재 ,408-12 대합실화재,,Y,Y,,,,,
1423,408FIRE0451,fire,On,8,45,408 수신기45 동작,408 화재14 대합실화재 ,408-12 대합실화재,,Y,Y,,,,,
1424,408FIRE0461,fire,On,8,46,408 수신기46 동작,408 화재31 신호통신실PT-01 ,408-24 신호통신실P/T,1,Y,Y,,,,,
1425,408FIRE0471,fire,On,8,47,408 수신기47 동작,408 화재32 신호통신실PT-02 ,408-24 신호통신실P/T,2,Y,Y,,,,,
1426,408FIRE0481,fire,On,8,48,408 수신기48 동작,408 화재14 대합실화재 ,408-12 대합실화재,,Y,Y,,,,,
699,408FIRE0501,fire,On,8,50,408 수신기50 동작,408 화재01 P-U1 ,408-01 P-U1,,Y,Y,,,,,
700,408FIRE0511,fire,On,8,51,408 수신기51 동작,408 화재01 P-U1 ,408-01 P-U1,,Y,Y,,,,,
701,408FIRE0521,fire,On,8,52,408 수신기52 동작,408 화재01 P-U1 ,408-01 P-U1,,Y,Y,,,,,
702,408FIRE0531,fire,On,8,53,408 수신기53 동작,408 화재02 P-U2 ,408-02 P-U2,,Y,Y,,,,,
703,408FIRE0541,fire,On,8,54,408 수신기54 동작,408 화재02 P-U2 ,408-02 P-U2,,Y,Y,,,,,
704,408FIRE0551,fire,On,8,55,408 수신기55 동작,408 화재03 P-D1 ,408-03 P-D1,,Y,Y,,,,,
705,408FIRE0561,fire,On,8,56,408 수신기56 동작,408 화재03 P-D1 ,408-03 P-D1,,Y,Y,,,,,
706,408FIRE0571,fire,On,8,57,408 수신기57 동작,408 화재03 P-D1 ,408-03 P-D1,,Y,Y,,,,,
707,408FIRE0581,fire,On,8,58,408 수신기58 동작,408 화재04 P-D2 ,408-04 P-D2,,Y,Y,,,,,
708,408FIRE0591,fire,On,8,59,408 수신기59 동작,408 화재04 P-D2 ,408-04 P-D2,,Y,Y,,,,,
709,408FIRE0601,fire,On,8,60,408 수신기60 동작,408 화재04 P-D2 ,408-04 P-D2,,Y,Y,,,,,
1444,408FIRE0611,fire,On,8,61,408 수신기61 동작,408 화재22 대합실화재PT-02 ,408-11 대합실화재P/T,2,Y,Y,Y,,,,
1427,408FIRE0621,fire,On,8,62,408 수신기62 동작,408 화재21 대합실화재PT-01 ,408-11 대합실화재P/T,1,Y,Y,,,,,
1428,408FIRE0631,fire,On,8,63,408 수신기63 동작,408 화재12 2/4출입구 ,408-09 2/4출입구,,Y,Y,,,,,
1429,408FIRE0641,fire,On,8,64,408 수신기64 동작,408 화재11 1/3출입구 ,408-08 1/3출입구,,Y,Y,,,,,
1430,408FIRE0651,fire,On,8,65,408 수신기65 동작,408 화재43 변전소P/T2-02 ,408-26 변전소P/T2,2,Y,Y,,,,,
1431,408FIRE0671,fire,On,8,67,408 수신기67 동작,408 화재14 대합실화재 ,408-12 대합실화재,,Y,Y,,,,,
1432,408FIRE0681,fire,On,8,68,408 수신기68 동작,408 화재14 대합실화재 ,408-12 대합실화재,,Y,Y,,,,,
710,408FIRE0691,fire,On,8,69,408 수신기69 동작,408 화재04 P-D2 ,408-04 P-D2,,Y,Y,,,,,
711,408FIRE0701,fire,On,8,70,408 수신기70 동작,408 화재04 P-D2 ,408-04 P-D2,,Y,Y,,,,,
712,408FIRE0711,fire,On,8,71,408 수신기71 동작,408 화재02 P-U2 ,408-02 P-U2,,Y,Y,,,,,
1433,408FIRE0751,fire,On,8,75,408 수신기75 동작,408 화재42 변전소P/T2-01 ,408-26 변전소P/T2,1,Y,Y,,,,,
1434,408FIRE0761,fire,On,8,76,408 수신기76 동작,408 화재41 변전소P/T1-01 ,408-25 변전소P/T1,1,Y,Y,,,,,
1435,408FIRE0771,fire,On,8,77,408 수신기77 동작,408 화재42 변전소P/T2-01 ,408-26 변전소P/T2,1,Y,Y,,,,,
1436,408FIRE0781,fire,On,8,78,408 수신기78 동작,408 화재42 변전소P/T2-01 ,408-26 변전소P/T2,1,Y,Y,,,,,
1437,408FIRE0791,fire,On,8,79,408 수신기79 동작,408 화재41 변전소P/T1-01 ,408-25 변전소P/T1,1,Y,Y,,,,,
1438,408FIRE0801,fire,On,8,80,408 수신기80 동작,408 화재42 변전소P/T2-01 ,408-26 변전소P/T2,1,Y,Y,,,,,
1439,408FIRE0811,fire,On,8,81,408 수신기81 동작,408 화재15 고객서비스센터 ,408-22 고객서비스센터,,Y,Y,,,,,
932,409FIRE0011,fire,On,9,1,409 수신기01 동작,409 화재01 P-U1 ,409-01 P-U1,,Y,Y,,,,,
933,409FIRE0021,fire,On,9,2,409 수신기02 동작,409 화재02 P-U2 ,409-02 P-U2,,Y,Y,,,,,
934,409FIRE0031,fire,On,9,3,409 수신기03 동작,409 화재02 P-U2 ,409-02 P-U2,,Y,Y,,,,,
935,409FIRE0041,fire,On,9,4,409 수신기04 동작,409 화재04 P-D2 ,409-04 P-D2,,Y,Y,,,,,
936,409FIRE0051,fire,On,9,5,409 수신기05 동작,409 화재03 P-D1 ,409-03 P-D1,,Y,Y,,,,,
937,409FIRE0061,fire,On,9,6,409 수신기06 동작,409 화재03 P-D1 ,409-03 P-D1,,Y,Y,,,,,
938,409FIRE0071,fire,On,9,7,409 수신기07 동작,409 화재11 2/4출입구 ,409-13 2/4출입구,,Y,Y,,,,,
939,409FIRE0081,fire,On,9,8,409 수신기08 동작,409 화재11 2/4출입구 ,409-13 2/4출입구,,Y,Y,,,,,
940,409FIRE0091,fire,On,9,9,409 수신기09 동작,409 화재22 대합실화재PT-02 ,409-11 대합실화재P/T,2,Y,Y,,,,,
941,409FIRE0101,fire,On,9,10,409 수신기10 동작,409 화재22 대합실화재PT-02 ,409-11 대합실화재P/T,2,Y,Y,,,,,
942,409FIRE0111,fire,On,9,11,409 수신기11 동작,409 화재22 대합실화재PT-02 ,409-11 대합실화재P/T,2,Y,Y,,,,,
943,409FIRE0121,fire,On,9,12,409 수신기12 동작,409 화재12 화장실 ,409-14 화장실,,Y,Y,,,,,
944,409FIRE0131,fire,On,9,13,409 수신기13 동작,409 화재12 화장실 ,409-14 화장실,,Y,Y,,,,,
945,409FIRE0141,fire,On,9,14,409 수신기14 동작,409 화재23 대합실화재PT-03 ,409-11 대합실화재P/T,3,Y,Y,,,,,
946,409FIRE0151,fire,On,9,15,409 수신기15 동작,409 화재23 대합실화재PT-03 ,409-11 대합실화재P/T,3,Y,Y,,,,,
947,409FIRE0161,fire,On,9,16,409 수신기16 동작,409 화재41 전기실PT-01 ,409-25 전기실P/T,1,Y,Y,,,,,
948,409FIRE0171,fire,On,9,17,409 수신기17 동작,409 화재31 신호통신실PT-01 ,409-24 신호통신실P/T,1,Y,Y,,,,,
949,409FIRE0181,fire,On,9,18,409 수신기18 동작,409 화재31 신호통신실PT-01 ,409-24 신호통신실P/T,1,Y,Y,,,,,
918,410FIRE0011,fire,On,10,1,410 수신기01 동작,410 화재41 전기실PT-01 ,410-17 전기실P/T,1,Y,Y,,,,,
919,410FIRE0021,fire,On,10,2,410 수신기02 동작,410 화재31 신호통신실PT-01 ,410-16 신호통신실P/T,1,Y,Y,,,,,
920,410FIRE0031,fire,On,10,3,410 수신기03 동작,410 화재21 대합실화재PT-01 ,410-10 대합실화재P/T,1,Y,Y,,,,,
921,410FIRE0041,fire,On,10,4,410 수신기04 동작,410 화재21 대합실화재PT-01 ,410-10 대합실화재P/T,1,Y,Y,,,,,
922,410FIRE0051,fire,On,10,5,410 수신기05 동작,410 화재22 대합실화재PT-02 ,410-10 대합실화재P/T,2,Y,Y,,,,,
923,410FIRE0061,fire,On,10,6,410 수신기06 동작,410 화재22 대합실화재PT-02 ,410-10 대합실화재P/T,2,Y,Y,,,,,
924,410FIRE0071,fire,On,10,7,410 수신기07 동작,410 화재01 P-U1 ,410-01 P-U1,,Y,Y,,,,,
925,410FIRE0081,fire,On,10,8,410 수신기08 동작,410 화재01 P-U1 ,410-01 P-U1,,Y,Y,,,,,
926,410FIRE0091,fire,On,10,9,410 수신기09 동작,410 화재01 P-U1 ,410-01 P-U1,,Y,Y,,,,,
927,410FIRE0101,fire,On,10,10,410 수신기10 동작,410 화재03 P-D1 ,410-03 P-D1,,Y,Y,,,,,
928,410FIRE0111,fire,On,10,11,410 수신기11 동작,410 화재03 P-D1 ,410-03 P-D1,,Y,Y,,,,,
929,410FIRE0121,fire,On,10,12,410 수신기12 동작,410 화재02 P-U2 ,410-02 P-U2,,Y,Y,,,,,
930,410FIRE0131,fire,On,10,13,410 수신기13 동작,410 화재03 P-D1 ,410-03 P-D1,,Y,Y,,,,,
887,411FIRE0011,fire,On,11,1,411 수신기01 동작,411 화재21 대합실화재PT-01 ,411-11 대합실화재P/T,1,Y,Y,,,,,
889,411FIRE0031,fire,On,11,3,411 수신기03 동작,411 화재23 대합실화재PT-03 ,411-11 대합실화재P/T,3,Y,Y,,,,,
890,411FIRE0041,fire,On,11,4,411 수신기04 동작,411 화재22 대합실화재PT-02 ,411-11 대합실화재P/T,2,Y,Y,,,,,
891,411FIRE0051,fire,On,11,5,411 수신기05 동작,411 화재04 P-D2 ,411-04 P-D2,,Y,Y,,,,,
892,411FIRE0061,fire,On,11,6,411 수신기06 동작,411 화재04 P-D2 ,411-04 P-D2,,Y,Y,,,,,
893,411FIRE0071,fire,On,11,7,411 수신기07 동작,411 화재02 P-U2 ,411-02 P-U2,,Y,Y,,,,,
894,411FIRE0081,fire,On,11,8,411 수신기08 동작,411 화재02 P-U2 ,411-02 P-U2,,Y,Y,,,,,
895,411FIRE0091,fire,On,11,9,411 수신기09 동작,411 화재03 P-D1 ,411-03 P-D1,,Y,Y,,,,,
896,411FIRE0101,fire,On,11,10,411 수신기10 동작,411 화재01 P-U1 ,411-01 P-U1,,Y,Y,,,,,
897,411FIRE0161,fire,On,11,16,411 수신기16 동작,411 화재42 전기실PT-02 ,411-24 전기실P/T,2,Y,Y,,,,,
898,411FIRE0171,fire,On,11,17,411 수신기17 동작,411 화재42 전기실PT-02 ,411-24 전기실P/T,2,Y,Y,,,,,
899,411FIRE0181,fire,On,11,18,411 수신기18 동작,411 화재41 전기실PT-01 ,411-24 전기실P/T,1,Y,Y,,,,,
900,411FIRE0191,fire,On,11,19,411 수신기19 동작,411 화재31 신호통신실PT-01 ,411-23 신호통신실P/T,1,Y,Y,,,,,
901,411FIRE0201,fire,On,11,20,411 수신기20 동작,411 화재31 신호통신실PT-01 ,411-23 신호통신실P/T,1,Y,Y,,,,,
902,411FIRE0211,fire,On,11,21,411 수신기21 동작,411 화재31 신호통신실PT-01 ,411-23 신호통신실P/T,1,Y,Y,,,,,
903,411FIRE0331,fire,On,11,33,411 수신기33 동작,411 화재54 변전소P/T1-04 ,411-25 변전소P/T1,4,Y,Y,,,,,
904,411FIRE0341,fire,On,11,34,411 수신기34 동작,411 화재54 변전소P/T1-04 ,411-25 변전소P/T1,4,Y,Y,,,,,
905,411FIRE0351,fire,On,11,35,411 수신기35 동작,411 화재55 변전소P/T2-01 ,411-26 변전소P/T2,1,Y,Y,,,,,
906,411FIRE0361,fire,On,11,36,411 수신기36 동작,411 화재56 변전소P/T2-02 ,411-26 변전소P/T2,2,Y,Y,,,,,
907,411FIRE0371,fire,On,11,37,411 수신기37 동작,411 화재55 변전소P/T2-01 ,411-26 변전소P/T2,1,Y,Y,,,,,
908,411FIRE0431,fire,On,11,43,411 수신기43 동작,411 화재52 변전소P/T1-02 ,411-25 변전소P/T1,2,Y,Y,,,,,
909,411FIRE0441,fire,On,11,44,411 수신기44 동작,411 화재52 변전소P/T1-02 ,411-25 변전소P/T1,2,Y,Y,,,,,
910,411FIRE0451,fire,On,11,45,411 수신기45 동작,411 화재52 변전소P/T1-02 ,411-25 변전소P/T1,2,Y,Y,,,,,
911,411FIRE0461,fire,On,11,46,411 수신기46 동작,411 화재53 변전소P/T1-03 ,411-25 변전소P/T1,3,Y,Y,,,,,
912,411FIRE0471,fire,On,11,47,411 수신기47 동작,411 화재53 변전소P/T1-03 ,411-25 변전소P/T1,3,Y,Y,,,,,
913,411FIRE0481,fire,On,11,48,411 수신기48 동작,411 화재51 변전소P/T1-01 ,411-25 변전소P/T1,1,Y,Y,,,,,
914,411FIRE0491,fire,On,11,49,411 수신기49 동작,411 화재57 변전소P/T2-03 ,411-26 변전소P/T2,3,Y,Y,,,,,
915,411FIRE0501,fire,On,11,50,411 수신기50 동작,411 화재57 변전소P/T2-03 ,411-26 변전소P/T2,3,Y,Y,,,,,
916,411FIRE0511,fire,On,11,51,411 수신기51 동작,411 화재55 변전소P/T2-01 ,411-26 변전소P/T2,1,Y,Y,,,,,
874,412FIRE0011,fire,On,12,1,412 수신기01 동작,412 화재21 대합실화재PT-01 ,412-11 대합실화재P/T,1,Y,Y,,,,,
876,412FIRE0021,fire,On,12,2,412 수신기02 동작,412 화재21 대합실화재PT-01 ,412-11 대합실화재P/T,1,Y,Y,,,,,
877,412FIRE0031,fire,On,12,3,412 수신기03 동작,412 화재22 대합실화재PT-02 ,412-11 대합실화재P/T,2,Y,Y,,,,,
878,412FIRE0041,fire,On,12,4,412 수신기04 동작,412 화재23 대합실화재PT-03 ,412-11 대합실화재P/T,3,Y,Y,,,,,
879,412FIRE0051,fire,On,12,5,412 수신기05 동작,412 화재41 전기실PT-01 ,412-24 전기실P/T,1,Y,Y,,,,,
880,412FIRE0061,fire,On,12,6,412 수신기06 동작,412 화재42 전기실PT-02 ,412-24 전기실P/T,2,Y,Y,,,,,
881,412FIRE0071,fire,On,12,7,412 수신기07 동작,412 화재03 P-D1 ,412-03 P-D1,,Y,Y,,,,,
882,412FIRE0081,fire,On,12,8,412 수신기08 동작,412 화재03 P-D1 ,412-03 P-D1,,Y,Y,,,,,
883,412FIRE0091,fire,On,12,9,412 수신기09 동작,412 화재04 P-D2 ,412-04 P-D2,,Y,Y,,,,,
884,412FIRE0101,fire,On,12,10,412 수신기10 동작,412 화재04 P-D2 ,412-04 P-D2,,Y,Y,,,,,
885,412FIRE0111,fire,On,12,11,412 수신기11 동작,412 화재04 P-D2 ,412-04 P-D2,,Y,Y,,,,,
862,413FIRE0011,fire,On,13,1,413 수신기01 동작,413 화재21 대합실화재PT-01 ,413-11 대합실화재P/T,1,Y,Y,,,,,
863,413FIRE0021,fire,On,13,2,413 수신기02 동작,413 화재21 대합실화재PT-01 ,413-11 대합실화재P/T,1,Y,Y,,,,,
864,413FIRE0031,fire,On,13,3,413 수신기03 동작,413 화재22 대합실화재PT-02 ,413-11 대합실화재P/T,2,Y,Y,,,,,
865,413FIRE0041,fire,On,13,4,413 수신기04 동작,413 화재22 대합실화재PT-02 ,413-11 대합실화재P/T,2,Y,Y,,,,,
866,413FIRE0051,fire,On,13,5,413 수신기05 동작,413 화재41 전기실PT-01 ,413-24 전기실P/T,1,Y,Y,,,,,
867,413FIRE0061,fire,On,13,6,413 수신기06 동작,413 화재42 전기실PT-02 ,413-24 전기실P/T,2,Y,Y,,,,,
868,413FIRE0071,fire,On,13,7,413 수신기07 동작,413 화재03 P-D1 ,413-03 P-D1,,Y,Y,,,,,
869,413FIRE0081,fire,On,13,8,413 수신기08 동작,413 화재03 P-D1 ,413-03 P-D1,,Y,Y,,,,,
870,413FIRE0091,fire,On,13,9,413 수신기09 동작,413 화재04 P-D2 ,413-04 P-D2,,Y,Y,,,,,
871,413FIRE0101,fire,On,13,10,413 수신기10 동작,413 화재04 P-D2 ,413-04 P-D2,,Y,Y,,,,,
872,413FIRE0111,fire,On,13,11,413 수신기11 동작,413 화재01 P-U1 ,413-01 P-U1,,Y,Y,,,,,
873,413FIRE0121,fire,On,13,12,413 수신기12 동작,413 화재01 P-U1 ,413-01 P-U1,,Y,Y,,,,,
814,414FIRE0011,fire,On,14,1,414 수신기01 동작,414 화재42 전기실PT-02 ,414-24 전기실P/T,2,Y,Y,,,,,
815,414FIRE0021,fire,On,14,2,414 수신기02 동작,414 화재42 전기실PT-02 ,414-24 전기실P/T,2,Y,Y,,,,,
816,414FIRE0031,fire,On,14,3,414 수신기03 동작,414 화재42 전기실PT-02 ,414-24 전기실P/T,2,Y,Y,,,,,
817,414FIRE0041,fire,On,14,4,414 수신기04 동작,414 화재42 전기실PT-02 ,414-24 전기실P/T,2,Y,Y,,,,,
818,414FIRE0051,fire,On,14,5,414 수신기05 동작,414 화재32 신호통신실PT-02 ,414-23 신호통신실P/T,2,Y,Y,,,,,
819,414FIRE0061,fire,On,14,6,414 수신기06 동작,414 화재32 신호통신실PT-02 ,414-23 신호통신실P/T,2,Y,Y,,,,,
820,414FIRE0071,fire,On,14,7,414 수신기07 동작,414 화재41 전기실PT-01 ,414-24 전기실P/T,1,Y,Y,,,,,
821,414FIRE0081,fire,On,14,8,414 수신기08 동작,414 화재31 신호통신실PT-01 ,414-23 신호통신실P/T,1,Y,Y,,,,,
822,414FIRE0091,fire,On,14,9,414 수신기09 동작,414 화재41 전기실PT-01 ,414-24 전기실P/T,1,Y,Y,,,,,
823,414FIRE0101,fire,On,14,10,414 수신기10 동작,414 화재41 전기실PT-01 ,414-24 전기실P/T,1,Y,Y,,,,,
824,414FIRE0111,fire,On,14,11,414 수신기11 동작,414 화재41 전기실PT-01 ,414-24 전기실P/T,1,Y,Y,,,,,
825,414FIRE0121,fire,On,14,12,414 수신기12동작,414 화재41 전기실PT-01 ,414-24 전기실P/T,1,Y,Y,,,,,
826,414FIRE0131,fire,On,14,13,414 수신기13 동작,414 화재21 대합실화재PT-01 ,414-11 대합실화재P/T,,Y,Y,,,,,
827,414FIRE0141,fire,On,14,14,414 수신기14 동작,414 화재21 대합실화재PT-01 ,414-11 대합실화재P/T,,Y,Y,,,,,
828,414FIRE0151,fire,On,14,15,414 수신기15 동작,414 화재21 대합실화재PT-01 ,414-11 대합실화재P/T,,Y,Y,,,,,
829,414FIRE0201,fire,On,14,20,414 수신기20 동작,414 화재22 대합실화재PT-02 ,414-11 대합실화재P/T,2,Y,Y,,,,,
830,414FIRE0211,fire,On,14,21,414 수신기21 동작,414 화재22 대합실화재PT-02 ,414-11 대합실화재P/T,2,Y,Y,,,,,
831,414FIRE0221,fire,On,14,22,414 수신기22 동작,414 화재11 게이트 4 ,414-05 게이트 4,,Y,Y,,,,,
832,414FIRE0231,fire,On,14,23,414 수신기23 동작,414 화재21 대합실화재PT-01 ,414-11 대합실화재P/T,,Y,Y,,,,,
833,414FIRE0241,fire,On,14,24,414 수신기24 동작,414 화재21 대합실화재PT-01 ,414-11 대합실화재P/T,,Y,Y,,,,,
834,414FIRE0251,fire,On,14,25,414 수신기25 동작,414 화재21 대합실화재PT-01 ,414-11 대합실화재P/T,,Y,Y,,,,,
835,414FIRE0261,fire,On,14,26,414 수신기26 동작,414 화재21 대합실화재PT-01 ,414-11 대합실화재P/T,,Y,Y,,,,,
836,414FIRE0271,fire,On,14,27,414 수신기27 동작,414 화재21 대합실화재PT-01 ,414-11 대합실화재P/T,,Y,Y,,,,,
837,414FIRE0281,fire,On,14,28,414 수신기28 동작,414 화재21 대합실화재PT-01 ,414-11 대합실화재P/T,,Y,Y,,,,,
838,414FIRE0291,fire,On,14,29,414 수신기29 동작,414 화재01 P-U1 ,414-01 P-U1,,Y,Y,,,,,
839,414FIRE0301,fire,On,14,30,414 수신기30 동작,414 화재01 P-U1 ,414-01 P-U1,,Y,Y,,,,,
840,414FIRE0311,fire,On,14,31,414 수신기31 동작,414 화재01 P-U1 ,414-01 P-U1,,Y,Y,,,,,
841,414FIRE0321,fire,On,14,32,414 수신기32 동작,414 화재23 대합실화재PT-03 ,414-11 대합실화재P/T,3,Y,Y,,,,,
842,414FIRE0331,fire,On,14,33,414 수신기33 동작,414 화재24 대합실화재PT-04 ,414-11 대합실화재P/T,4,Y,Y,,,,,
843,414FIRE0341,fire,On,14,34,414 수신기34 동작,414 화재23 대합실화재PT-03 ,414-11 대합실화재P/T,3,Y,Y,,,,,
844,414FIRE0351,fire,On,14,35,414 수신기35 동작,414 화재23 대합실화재PT-03 ,414-11 대합실화재P/T,3,Y,Y,,,,,
845,414FIRE0361,fire,On,14,36,414 수신기36 동작,414 화재23 대합실화재PT-03 ,414-11 대합실화재P/T,3,Y,Y,,,,,
846,414FIRE0371,fire,On,14,37,414 수신기37 동작,414 화재24 대합실화재PT-04 ,414-11 대합실화재P/T,4,Y,Y,,,,,
847,414FIRE0381,fire,On,14,38,414 수신기38 동작,414 화재24 대합실화재PT-04 ,414-11 대합실화재P/T,4,Y,Y,,,,,
849,414FIRE0391,fire,On,14,39,414 수신기39 동작,414 화재24 대합실화재PT-04 ,414-11 대합실화재P/T,4,Y,Y,,,,,
850,414FIRE0401,fire,On,14,40,414 수신기40 동작,414 화재24 대합실화재PT-04 ,414-11 대합실화재P/T,4,Y,Y,,,,,
851,414FIRE0411,fire,On,14,41,414 수신기41 동작,414 화재02 P-U2 ,414-02 P-U2,,Y,Y,,,,,
852,414FIRE0421,fire,On,14,42,414 수신기42 동작,414 화재02 P-U2 ,414-02 P-U2,,Y,Y,,,,,
853,414FIRE0431,fire,On,14,43,414 수신기43 동작,414 화재02 P-U2 ,414-02 P-U2,,Y,Y,,,,,
854,414FIRE0441,fire,On,14,44,414 수신기44 동작,414 화재02 P-U2 ,414-02 P-U2,,Y,Y,,,,,
855,414FIRE0451,fire,On,14,45,414 수신기45 동작,414 화재02 P-U2 ,414-02 P-U2,,Y,Y,,,,,
856,414FIRE0461,fire,On,14,46,414 수신기46 동작,414 화재02 P-U2 ,414-02 P-U2,,Y,Y,,,,,
1445,414FIRE0471,fire,On,14,47,414 수신기47 동작,414 화재21 대합실화재PT-01 ,414-11 대합실화재P/T,,Y,Y,,,,,
1454,414FIRE0481,fire,On,14,48,414 수신기48 동작,414 화재21 대합실화재PT-01 ,414-11 대합실화재P/T,,Y,Y,,,,,
857,414FIRE0491,fire,On,14,49,414 수신기49 동작,414 화재01 P-U1 ,414-01 P-U1,,Y,Y,,,,,
858,414FIRE0501,fire,On,14,50,414 수신기50 동작,414 화재01 P-U1 ,414-01 P-U1,,Y,Y,,,,,
859,414FIRE0511,fire,On,14,51,414 수신기51 동작,414 화재01 P-U1 ,414-01 P-U1,,Y,Y,,,,,
1448,414FIRE0521,fire,On,14,52,414 수신기52 동작,414 화재23 대합실화재PT-03 ,414-11 대합실화재P/T,3,Y,Y,,,,,
1449,414FIRE0531,fire,On,14,53,414 수신기53 동작,414 화재24 대합실화재PT-04 ,414-11 대합실화재P/T,4,Y,Y,,,,,
860,414FIRE0541,fire,On,14,54,414 수신기54 동작,414 화재01 P-U1 ,414-01 P-U1,,Y,Y,,,,,
768,S021801E,door,On,2,180,402 전기실 출입문,402 전기실 출입문 열림,402-37 전기실P/T,,,,,,,Y,
770,S021811E,door,On,2,181,402 신호통신실 출입문,402 신호통신실 출입문 열림,402-36 신호통신실P/T,1,,,,,,,
771,S031631E,door,On,3,163,403 전기실 출입문,403 전기실 출입문 열림,403-32 전기실PT,,,,,,,Y,
773,S031641E,door,On,3,164,403 신호통신실 출입문,403 신호통신실 출입문 열림,403-31 신호통신실PT,1,,,,,,,
774,S041521E,door,On,4,152,404 전기실 출입문,404 전기실 출입문 열림,404-25 전기실PT,1,,,,,,Y,
776,S041531E,door,On,4,153,404 신호통신실 출입문,404 신호통신실 출입문 열림,404-24 신호통신실PT,1,,,,,,,
689,S051371E,door,On,5,137,405 변전실 출입문,405 변전소 출입문 열림,405-30 변전소P/T1,1,,,,,,Y,
688,S051381E,door,On,5,138,405 신호통신실 출입문,405 신호통신실 출입문 열림,405-29 신호통신실P/T,1,,,,,,,
741,S061231E,door,On,6,123,406 전기실 출입문,406 전기실 출입문 열림,406-30 전기실PT,1,,,,,,Y,
740,S061241E,door,On,6,124,406 신호통신실 출입문,406 신호통신실 출입문 열림,406-29 신호통신실P/T,1,,,,,,,
783,S071091E,door,On,7,109,407 전기실 출입문,407 전기실 출입문 열림,407-30 전기실P/T,1,,,,,,Y,
785,S071101E,door,On,7,110,407 신호통신실 출입문,407 신호통신실 출입문 열림,407-29 신호통신실P/T,1,,,,,,,
747,S080301E,door,On,8,30,408 변전실 출입문,408 변전실 출입문 열림,408-25 변전소P/T1,1,,,,,,Y,
788,S080311E,door,On,8,31,408 신호통신실 출입문,408 신호통신실 출입문 열림,408-24 신호통신실P/T,1,,,,,,,
789,S090051E,door,On,9,5,409 전기실 출입문,409 전기실 출입문 열림,409-25 전기실P/T,1,,,,,,Y,
677,S090071E,door,On,9,7,409 신호통신실 출입문,409 신호통신실 출입문 열림,409-24 신호통신실P/T,1,,,,,,,
792,S100951E,door,On,10,95,410 전기실 출입문,410 전기실 출입문 열림,410-17 전기실P/T,1,,,,,,Y,
794,S100961E,door,On,10,96,410 신호통신실 출입문,410 신호통신실 출입문 열림,410-16 신호통신실P/T,1,,,,,,,
757,S110771E,door,On,11,77,411 변전실 출입문,411 변전소 출입문 열림,411-25 변전소P/T1,1,,,,,,Y,
754,S110811E,door,On,11,81,411 전기실 출입문,411 전기실 출입문 열림,411-24 전기실P/T,1,,,,,,Y,
756,S110821E,door,On,11,82,411 신호통시실 출입문,411 신호통신실 출입문 열림,411-23 신호통신실P/T,1,,,,,,,
759,S120661E,door,On,12,66,412 전기실 출입문,412 전기실 출입문 열림,412-24 전기실P/T,1,,,,,,Y,
761,S120671E,door,On,12,67,412 신호통신실 출입문,412 신호통신실 출입문 열림,412-23 신호통신실P/T,1,,,,,,,
763,S130521E,door,On,13,52,413 전기실 출입문,413 전기실 출입문 열림,413-24 전기실P/T,1,,,,,,Y,
805,S130531E,door,On,13,53,413 신호통신실 출입문,413 신호통신실 출입문 열림,413-23 신호통신실P/T,1,,,,,,,
806,S140421E,door,On,14,42,414 전기실 출입문,414 전기실 출입문 열림,414-24 전기실P/T,1,,,,,,Y,
808,S140431E,door,On,14,43,414 신호통신실 출입문,414 신호통신실 출입문 열림,414-23 신호통신실P/T,1,,,,,,,
137,{810000000000000101},interphone,On,1,1,401-01-승강장비상통화,401-01-승강장비상통화 호출,401-01 P-U1,,,Y,,Y,Y,,
139,{810000000000000102},interphone,On,1,2,401-02-승강장비상통화,401-02-승강장비상통화 호출,401-02 P-U2,,,Y,,Y,Y,,
141,{810000000000000103},interphone,On,1,3,401-03-승강장비상통화,401-03-승강장비상통화 호출,401-03 P-D1,,,Y,,Y,Y,,
143,{810000000000000104},interphone,On,1,4,401-04-승강장비상통화,401-04-승강장비상통화 호출,401-04 P-D2,,,Y,,Y,Y,,
408,{810000000000000106},interphone,On,1,6,401-06-E/L외부인터폰,401-06-E/L외부인터폰 호출,401-09 E/L-B3,,,Y,Y,,,,
239,{810000000000000201},interphone,On,2,1,402-01-승강장비상통화,402-01-승강장비상통화 호출,402-01 P-U1,,,Y,,Y,Y,,
238,{810000000000000202},interphone,On,2,2,402-02-승강장비상통화,402-02-승강장비상통화 호출,402-02 P-U2,,,Y,,Y,Y,,
240,{810000000000000203},interphone,On,2,3,402-03-승강장비상통화,402-03-승강장비상통화 호출,402-03 P-D1,,,Y,,Y,Y,,
241,{810000000000000204},interphone,On,2,4,402-04-승강장비상통화,402-04-승강장비상통화 호출,402-04 P-D2,,,Y,,Y,Y,,
713,{810000000000000205},interphone,On,2,5,402-05-콜폰,402-05-콜폰 호출,402-12 화장실,,,Y,,,,Y,
376,{810000000000000212},interphone,On,2,12,402-12-E/L1호기-F1,402-06-E/L1호기-F1 호출,402-18 E/L1호기-F1,,,Y,Y,,,,
378,{810000000000000213},interphone,On,2,13,402-13-E/L1호기-B1,402-07-E/L1호기-B1 호출,402-19 E/L1호기-B1,,,Y,Y,,,,
380,{810000000000000214},interphone,On,2,14,402-14-E/L1호기-내부,402-08-E/L1호기-내부 호출,402-20 E/L1호기-내부,,,Y,Y,,,,
382,{810000000000000215},interphone,On,2,15,402-15-E/L2호기-F1,402-09-E/L2호기-F1 호출,402-21 E/L2호기-F1,,,Y,Y,,,,
384,{810000000000000216},interphone,On,2,16,402-16-E/L2호기-B1,402-10-E/L2호기-B1 호출,402-22 E/L2호기-B1,,,Y,Y,,,,
386,{810000000000000217},interphone,On,2,17,402-17-E/L2호기-내부,402-11-E/L2호기-내부 호출,402-23 E/L2호기-내부,,,Y,Y,,,,
388,{810000000000000218},interphone,On,2,18,402-18-E/L3호기-B1,402-12-E/L3호기-B1 호출,402-24 E/L3호기-B1,,,Y,Y,,,,
390,{810000000000000219},interphone,On,2,19,402-19-E/L3호기-B2,402-13-E/L3호기-B2 호출,402-25 E/L3호기-B2,,,Y,Y,,,,
392,{810000000000000220},interphone,On,2,20,402-20-E/L3호기-B3,402-14-E/L3호기-B3 호출,402-26 E/L3호기-B3,,,Y,Y,,,,
394,{810000000000000221},interphone,On,2,21,402-21-E/L3호기-승강장,402-15-E/L3호기-승강장 호출,402-27 E/L3호기-승강장,,,Y,Y,,,,
396,{810000000000000222},interphone,On,2,22,402-22-E/L3호기-내부,402-16-E/L3호기-내부 호출,402-28 E/L3호기-내부,,,Y,Y,,,,
398,{810000000000000223},interphone,On,2,23,402-23-E/L4호기-B1,402-17-E/L4호기-B1 호출,402-29 E/L4호기-B1,,,Y,Y,,,,
400,{810000000000000224},interphone,On,2,24,402-24-E/L4호기-B2,402-18-E/L4호기-B2 호출,402-30 E/L4호기-B2,,,Y,Y,,,,
402,{810000000000000225},interphone,On,2,25,402-25-E/L4호기-B3,402-19-E/L4호기-B3 호출,402-31 E/L4호기-B3,,,Y,Y,,,,
404,{810000000000000226},interphone,On,2,26,402-26-E/L4호기-승강장,402-20-E/L4호기-승강장 호출,402-32 E/L4호기-승강장,,,Y,Y,,,,
406,{810000000000000227},interphone,On,2,27,402-27-E/L4호기-내부,402-21-E/L4호기-내부 호출,402-33 E/L4호기-내부,,,Y,Y,,,,
246,{810000000000000301},interphone,On,3,1,403-01-승강장비상통화,403-01-승강장비상통화 호출,403-01 P-U1,,,Y,,Y,Y,,
247,{810000000000000302},interphone,On,3,2,403-02-승강장비상통화,403-02-승강장비상통화 호출,403-02 P-U2,,,Y,,Y,Y,,
248,{810000000000000303},interphone,On,3,3,403-03-승강장비상통화,403-03-승강장비상통화 호출,403-03 P-D1,,,Y,,Y,Y,,
249,{810000000000000304},interphone,On,3,4,403-04-승강장비상통화,403-04-승강장비상통화 호출,403-04 P-D2,,,Y,,Y,Y,,
715,{810000000000000305},interphone,On,3,5,403-05-콜폰,403-05-콜폰 호출,403-10 화장실,,,Y,,,,Y,
417,{810000000000000306},interphone,On,3,6,403-06-E/L1호기-F1,403-06-E/L1호기-F1 호출,403-14 E/L1호기-F1,,,Y,Y,,,,
419,{810000000000000307},interphone,On,3,7,403-07-E/L1호기-B1,403-07-E/L1호기-B1 호출,403-15 E/L1호기-B1,,,Y,Y,,,,
421,{810000000000000308},interphone,On,3,8,403-08-E/L1호기-내부,403-08-E/L1호기-내부 호출,403-16 E/L1호기-내부,,,Y,Y,,,,
424,{810000000000000309},interphone,On,3,9,403-09-E/L2호기-F1,403-09-E/L2호기-F1 호출,403-17 E/L2호기-F1,,,Y,Y,,,,
426,{810000000000000310},interphone,On,3,10,403-10-E/L2호기-B1,403-10-E/L2호기-B1 호출,403-18 E/L2호기-B1,,,Y,Y,,,,
428,{810000000000000311},interphone,On,3,11,403-11-E/L2호기-내부,403-11-E/L2호기-내부 호출,403-19 E/L2호기-내부,,,Y,Y,,,,
430,{810000000000000312},interphone,On,3,12,403-12-E/L3호기-F1,403-12-E/L3호기-F1 호출,403-20 E/L3호기-F1,,,Y,Y,,,,
432,{810000000000000313},interphone,On,3,13,403-13-E/L3호기-B1,403-13-E/L3호기-B1 호출,403-21 E/L3호기-B1,,,Y,Y,,,,
434,{810000000000000314},interphone,On,3,14,403-14-E/L3호기-내부,403-14-E/L3호기-내부 호출,403-22 E/L3호기-내부,,,Y,Y,,,,
437,{810000000000000315},interphone,On,3,15,403-15-E/L4호기-B1,403-15-E/L4호기-B1 호출,403-23 E/L4호기-B1,,,Y,Y,,,,
439,{810000000000000316},interphone,On,3,16,403-16-E/L4호기-승강장,403-16-E/L4호기-승강장 호출,403-24 E/L4호기-승강장,,,Y,Y,,,,
441,{810000000000000317},interphone,On,3,17,403-17-E/L4호기-내부,403-17-E/L4호기-내부 호출,403-25 E/L4호기-내부,,,Y,Y,,,,
443,{810000000000000318},interphone,On,3,18,403-18-E/L5호기-B1,403-18-E/L5호기-B1 호출,403-26 E/L5호기-B1,,,Y,Y,,,,
445,{810000000000000319},interphone,On,3,19,403-19-E/L5호기-승강장,403-19-E/L5호기-승강장 호출,403-27 E/L5호기-승강장,,,Y,Y,,,,
447,{810000000000000320},interphone,On,3,20,403-20-E/L5호기-내부,403-20-E/L5호기-내부 호출,403-28 E/L5호기-내부,,,Y,Y,,,,
230,{810000000000000401},interphone,On,4,1,404-01-승강장비상통화,404-01-승강장비상통화 호출,404-01 P-U1,,,Y,,Y,Y,,
231,{810000000000000402},interphone,On,4,2,404-02-승강장비상통화,404-02-승강장비상통화 호출,404-02 P-U2,,,Y,,Y,Y,,
232,{810000000000000403},interphone,On,4,3,404-03-승강장비상통화,404-03-승강장비상통화 호출,404-03 P-D1,,,Y,,Y,Y,,
233,{810000000000000404},interphone,On,4,4,404-04-승강장비상통화,404-04-승강장비상통화 호출,404-04 P-D2,,,Y,,Y,Y,,
717,{810000000000000405},interphone,On,4,5,404-05-콜폰,404-05-콜폰 호출,404-10 화장실,,,Y,,,,Y,
449,{810000000000000406},interphone,On,4,6,404-06-E/L1호기-F1,404-06-E/L1호기-F1 호출,404-13 E/L1호기-F1,,,Y,Y,,,,
451,{810000000000000407},interphone,On,4,7,404-07-E/L1호기-B1,404-07-E/L1호기-B1 호출,404-14 E/L1호기-B1,,,Y,Y,,,,
454,{810000000000000408},interphone,On,4,8,404-08-E/L1호기-내부,404-08-E/L1호기-내부 호출,404-15 E/L1호기-내부,,,Y,Y,,,,
456,{810000000000000409},interphone,On,4,9,404-09-E/L2호기-F1,404-09-E/L2호기-F1 호출,404-16 E/L2호기-F1,,,Y,Y,,,,
458,{810000000000000410},interphone,On,4,10,404-10-E/L2호기-B1,404-10-E/L2호기-B1 호출,404-17 E/L2호기-B1,,,Y,Y,,,,
460,{810000000000000411},interphone,On,4,11,404-11-E/L2호기-내부,404-11-E/L2호기-내부 호출,404-18 E/L2호기-내부,,,Y,Y,,,,
462,{810000000000000412},interphone,On,4,12,404-12-E/L3호기-B1,404-12-E/L3호기-B1 호출,404-19 E/L3호기-B1,,,Y,Y,,,,
464,{810000000000000413},interphone,On,4,13,404-13-E/L3호기-승강장,404-13-E/L3호기-승강장 호출,404-20 E/L3호기-승강장,,,Y,Y,,,,
466,{810000000000000414},interphone,On,4,14,404-14-E/L3호기-내부,404-14-E/L3호기-내부 호출,404-21 E/L3호기-내부,,,Y,Y,,,,
222,{810000000000000501},interphone,On,5,1,405-01-승강장비상통화,405-01-승강장비상통화 호출,405-01 P-U1,,,Y,,Y,Y,,
223,{810000000000000502},interphone,On,5,2,405-02-승강장비상통화,405-02-승강장비상통화 호출,405-02 P-U2,,,Y,,Y,Y,,
224,{810000000000000503},interphone,On,5,3,405-03-승강장비상통화,405-03-승강장비상통화 호출,405-03 P-D1,,,Y,,Y,Y,,
225,{810000000000000504},interphone,On,5,4,405-04-승강장비상통화,405-04-승강장비상통화 호출,405-04 P-D2,,,Y,,Y,Y,,
719,{810000000000000505},interphone,On,5,5,405-05-콜폰 ,405-05-콜폰 호출,405-10 화장실,,,Y,,,,Y,
468,{810000000000000506},interphone,On,5,6,405-06-E/L1호기-F1,405-06-E/L1호기-F1 호출,405-13 E/L1호기-F1,,,Y,Y,,,,
470,{810000000000000507},interphone,On,5,7,405-07-E/L1호기-B1,405-07-E/L1호기-B1 호출,405-14 E/L1호기-B1,,,Y,Y,,,,
472,{810000000000000508},interphone,On,5,8,405-08-E/L1호기-내부,405-08-E/L1호기-내부 호출,405-15 E/L1호기-내부,,,Y,Y,,,,
474,{810000000000000509},interphone,On,5,9,405-09-E/L2호기-F1,405-09-E/L2호기-F1 호출,405-16 E/L2호기-F1,,,Y,Y,,,,
476,{810000000000000510},interphone,On,5,10,405-10-E/L2호기-B1,405-10-E/L2호기-B1 호출,405-17 E/L2호기-B1,,,Y,Y,,,,
478,{810000000000000511},interphone,On,5,11,405-11-E/L2호기-내부,405-11-E/L2호기-내부 호출,405-18 E/L2호기-내부,,,Y,Y,,,,
480,{810000000000000512},interphone,On,5,12,405-12-E/L3호기-B1,405-12-E/L3호기-B1 호출,405-19 E/L3호기-B1,,,Y,Y,,,,
482,{810000000000000513},interphone,On,5,13,405-13-E/L3호기-B2,405-13-E/L3호기-B2 호출,405-20 E/L3호기-B2,,,Y,Y,,,,
484,{810000000000000514},interphone,On,5,14,405-14-E/L3호기-승강장,405-14-E/L3호기-승강장 호출,405-21 E/L3호기-승강장,,,Y,Y,,,,
486,{810000000000000515},interphone,On,5,15,405-15-E/L3호기-내부,405-15-E/L3호기-내부 호출,405-22 E/L3호기-내부,,,Y,Y,,,,
488,{810000000000000516},interphone,On,5,16,405-16-E/L4호기-B1,405-16-E/L4호기-B1 호출,405-23 E/L4호기-B1,,,Y,Y,,,,
490,{810000000000000517},interphone,On,5,17,405-17-E/L4호기-B2,405-17-E/L4호기-B2 호출,405-24 E/L4호기-B2,,,Y,Y,,,,
492,{810000000000000518},interphone,On,5,18,405-18-E/L4호기-승강장,405-18-E/L4호기-승강장 호출,405-25 E/L4호기-승강장,,,Y,Y,,,,
494,{810000000000000519},interphone,On,5,19,405-19-E/L4호기-내부,405-19-E/L4호기-내부 호출,405-26 E/L4호기-내부,,,Y,Y,,,,
214,{810000000000000601},interphone,On,6,1,406-01-승강장비상통화,406-01-승강장비상통화 호출,406-01 P-U1,,,Y,,Y,Y,,
215,{810000000000000602},interphone,On,6,2,406-02-승강장비상통화,406-02-승강장비상통화 호출,406-02 P-U2,,,Y,,Y,Y,,
216,{810000000000000603},interphone,On,6,3,406-03-승강장비상통화,406-03-승강장비상통화 호출,406-03 P-D1,,,Y,,Y,Y,,
217,{810000000000000604},interphone,On,6,4,406-04-승강장비상통화,406-04-승강장비상통화 호출,406-04 P-D2,,,Y,,Y,Y,,
721,{810000000000000605},interphone,On,6,5,406-05-콜폰,406-05-콜폰 호출,406-10 화장실,,,Y,,,,Y,
497,{810000000000000606},interphone,On,6,6,406-06-E/L1호기-F1,406-06-E/L1호기-F1 호출,406-13 E/L1호기-F1,,,Y,Y,,,,
499,{810000000000000607},interphone,On,6,7,406-07-E/L1호기-B1,406-07-E/L1호기-B1 호출,406-14 E/L1호기-B1,,,Y,Y,,,,
501,{810000000000000608},interphone,On,6,8,406-08-E/L1호기-내부,406-08-E/L1호기-내부 호출,406-15 E/L1호기-내부,,,Y,Y,,,,
503,{810000000000000609},interphone,On,6,9,406-09-E/L2호기-F1,406-09-E/L2호기-F1 호출,406-16 E/L2호기-F1,,,Y,Y,,,,
505,{810000000000000610},interphone,On,6,10,406-10-E/L2호기-B1,406-10-E/L2호기-B1 호출,406-17 E/L2호기-B1,,,Y,Y,,,,
507,{810000000000000611},interphone,On,6,11,406-11-E/L2호기-내부,406-11-E/L2호기-내부 호출,406-18 E/L2호기-내부,,,Y,Y,,,,
509,{810000000000000612},interphone,On,6,12,406-12-E/L3호기-B1,406-12-E/L3호기-B1 호출,406-19 E/L3호기-B1,,,Y,Y,,,,
511,{810000000000000613},interphone,On,6,13,406-13-E/L3호기-B2,406-13-E/L3호기-B2 호출,406-20 E/L3호기-B2,,,Y,Y,,,,
513,{810000000000000614},interphone,On,6,14,406-14-E/L3호기-승강장,406-14-E/L3호기-승강장 호출,406-21 E/L3호기-승강장,,,Y,Y,,,,
515,{810000000000000615},interphone,On,6,15,406-15-E/L3호기-내부,406-15-E/L3호기-내부 호출,406-22 E/L3호기-내부,,,Y,Y,,,,
517,{810000000000000616},interphone,On,6,16,406-16-E/L4호기-B1,406-16-E/L4호기-B1 호출,406-23 E/L4호기-B1,,,Y,Y,,,,
519,{810000000000000617},interphone,On,6,17,406-17-E/L4호기-B2,406-17-E/L4호기-B2 호출,406-24 E/L4호기-B2,,,Y,Y,,,,
521,{810000000000000618},interphone,On,6,18,406-18-E/L4호기-승강장,406-18-E/L4호기-승강장 호출,406-25 E/L4호기-승강장,,,Y,Y,,,,
523,{810000000000000619},interphone,On,6,19,406-19-E/L4호기-내부,406-19-E/L4호기-내부 호출,406-26 E/L4호기-내부,,,Y,Y,,,,
206,{810000000000000701},interphone,On,7,1,407-01-승강장비상통화,407-01-승강장비상통화 호출,407-01 P-U1,,,Y,,Y,Y,,
207,{810000000000000702},interphone,On,7,2,407-02-승강장비상통화,407-02-승강장비상통화 호출,407-02 P-U2,,,Y,,Y,Y,,
208,{810000000000000703},interphone,On,7,3,407-03-승강장비상통화,407-03-승강장비상통화 호출,407-03 P-D1,,,Y,,Y,Y,,
209,{810000000000000704},interphone,On,7,4,407-04-승강장비상통화,407-04-승강장비상통화 호출,407-04 P-D2,,,Y,,Y,Y,,
723,{810000000000000705},interphone,On,7,5,407-05-콜폰,407-05-콜폰 호출,407-10 화장실,,,Y,,,,Y,
524,{810000000000000706},interphone,On,7,6,407-06-E/L1호기-F1,407-06-E/L1호기-F1 호출,407-13 E/L1호기-F1,,,Y,Y,,,,
526,{810000000000000707},interphone,On,7,7,407-07-E/L1호기-B1,407-07-E/L1호기-B1 호출,407-14 E/L1호기-B1,,,Y,Y,,,,
529,{810000000000000708},interphone,On,7,8,407-08-E/L1호기-내부,407-08-E/L1호기-내부 호출,407-15 E/L1호기-내부,,,Y,Y,,,,
536,{810000000000000709},interphone,On,7,9,407-09-E/L2호기-F1,407-09-E/L2호기-F1 호출,407-16 E/L2호기-F1,,,Y,Y,,,,
1440,{810000000000000710},interphone,On,7,10,407-10-E/L2호기-B1,407-10-E/L2호기-B1 호출,407-17 E/L2호기-B1,,,Y,Y,,,,
550,{810000000000000711},interphone,On,7,11,407-11-E/L2호기-내부,407-11-E/L2호기-내부 호출,407-18 E/L2호기-내부,,,Y,Y,,,,
555,{810000000000000712},interphone,On,7,12,407-12-E/L3호기-B1,407-12-E/L3호기-B1 호출,407-19 E/L3호기-B1,,,Y,Y,,,,
1441,{810000000000000713},interphone,On,7,13,407-13-E/L3호기-B2,407-13-E/L3호기-B2 호출,407-20 E/L3호기-B2,,,Y,Y,,,,
559,{810000000000000714},interphone,On,7,14,407-14-E/L3호기-승강장,407-14-E/L3호기-승강장 호출,407-21 E/L3호기-승강장,,,Y,Y,,,,
561,{810000000000000715},interphone,On,7,15,407-15-E/L3호기-내부,407-15-E/L3호기-내부 호출,407-22 E/L3호기-내부,,,Y,Y,,,,
563,{810000000000000716},interphone,On,7,16,407-16-E/L4호기-B1,407-16-E/L4호기-B1 호출,407-23 E/L4호기-B1,,,Y,Y,,,,
565,{810000000000000717},interphone,On,7,17,407-17-E/L4호기-B2,407-17-E/L4호기-B2 호출,407-24 E/L4호기-B2,,,Y,Y,,,,
568,{810000000000000718},interphone,On,7,18,407-18-E/L4호기-승강장,407-18-E/L4호기-승강장 호출,407-25 E/L4호기-승강장,,,Y,Y,,,,
570,{810000000000000719},interphone,On,7,19,407-19-E/L4호기-내부,407-19-E/L4호기-내부 호출,407-26 E/L4호기-내부,,,Y,Y,,,,
198,{810000000000000801},interphone,On,8,1,408-01-승강장비상통화,408-01-승강장비상통화 호출,408-01 P-U1,,,Y,,Y,Y,,
199,{810000000000000802},interphone,On,8,2,408-02-승강장비상통화,408-02-승강장비상통화 호출,408-02 P-U2,,,Y,,Y,Y,,
200,{810000000000000803},interphone,On,8,3,408-03-승강장비상통화,408-03-승강장비상통화 호출,408-03 P-D1,,,Y,,Y,Y,,
201,{810000000000000804},interphone,On,8,4,408-04-승강장비상통화,408-04-승강장비상통화 호출,408-04 P-D2,,,Y,,Y,Y,,
725,{810000000000000805},interphone,On,8,5,408-05-콜폰,408-05-콜폰 호출,408-10 화장실,,,Y,,,,Y,
528,{810000000000000806},interphone,On,8,6,408-06-E/L1호기-F1,408-06-E/L1호기-F1 호출,408-13 E/L1호기-F1,,,Y,Y,,,,
531,{810000000000000807},interphone,On,8,7,408-07-E/L1호기-B1,408-07-E/L1호기-B1 호출,408-14 E/L1호기-B1,,,Y,Y,,,,
534,{810000000000000808},interphone,On,8,8,408-08-E/L1호기-내부,408-08-E/L1호기-내부 호출,408-15 E/L1호기-내부,,,Y,Y,,,,
537,{810000000000000809},interphone,On,8,9,408-09-E/L2호기-F1,408-09-E/L2호기-F1 호출,408-16 E/L2호기-F1,,,Y,Y,,,,
543,{810000000000000810},interphone,On,8,10,408-10-E/L2호기-B1,408-10-E/L2호기-B1 호출,408-17 E/L2호기-B1,,,Y,Y,,,,
546,{810000000000000811},interphone,On,8,11,408-11-E/L2호기-내부,408-11-E/L2호기-내부 호출,408-18 E/L2호기-내부,,,Y,Y,,,,
548,{810000000000000812},interphone,On,8,12,408-12-E/L3호기-B1,408-12-E/L3호기-B1 호출,408-19 E/L3호기-B1,,,Y,Y,,,,
551,{810000000000000813},interphone,On,8,13,408-13-E/L3호기-승강장,408-13-E/L3호기-승강장 호출,408-20 E/L3호기-승강장,,,Y,Y,,,,
566,{810000000000000814},interphone,On,8,14,408-14-E/L3호기-내부,408-14-E/L3호기-내부 호출,408-21 E/L3호기-내부,,,Y,Y,,,,
190,{810000000000000901},interphone,On,9,1,409-01-승강장비상통화,409-01-승강장비상통화 호출,409-01 P-U1,,,Y,,Y,Y,,
191,{810000000000000902},interphone,On,9,2,409-02-승강장비상통화,409-02-승강장비상통화 호출,409-02 P-U2,,,Y,,Y,Y,,
192,{810000000000000903},interphone,On,9,3,409-03-승강장비상통화,409-03-승강장비상통화 호출,409-03 P-D1,,,Y,,Y,Y,,
193,{810000000000000904},interphone,On,9,4,409-04-승강장비상통화,409-04-승강장비상통화 호출,409-04 P-D2,,,Y,,Y,Y,,
727,{810000000000000905},interphone,On,9,5,409-05-콜폰,409-05-콜폰 호출,409-14 화장실,,,Y,,,,Y,
415,{810000000000000906},interphone,On,9,6,409-06-E/L1호기-F1,409-06-E/L1호기-F1 호출,409-15 E/L1호기-F1,,,Y,Y,,,,
581,{810000000000000907},interphone,On,9,7,409-07-E/L1호기-승강장,409-07-E/L1호기-승강장 호출,409-16 E/L1호기-B1,,,Y,Y,,,,
583,{810000000000000908},interphone,On,9,8,409-08-E/L1호기-내부,409-08-E/L1호기-내부 호출,409-17 E/L1호기-내부,,,Y,Y,,,,
585,{810000000000000909},interphone,On,9,9,409-09-E/L2호기-F1,409-09-E/L2호기-F1 호출,409-18 E/L2호기-F1,,,Y,Y,,,,
587,{810000000000000910},interphone,On,9,10,409-10-E/L2호기-승강장,409-10-E/L2호기-승강장 호출,409-19 E/L2호기-B1,,,Y,Y,,,,
589,{810000000000000911},interphone,On,9,11,409-11-E/L2호기-내부,409-11-E/L2호기-내부 호출,409-20 E/L2호기-내부,,,Y,Y,,,,
182,{810000000000001001},interphone,On,10,1,410-01-승강장비상통화,410-01-승강장비상통화 호출,410-01 P-U1,,,Y,,Y,Y,,
183,{810000000000001002},interphone,On,10,2,410-02-승강장비상통화,410-02-승강장비상통화 호출,410-02 P-U2,,,Y,,Y,Y,,
184,{810000000000001003},interphone,On,10,3,410-03-승강장비상통화,410-03-승강장비상통화 호출,410-03 P-D1,,,Y,,Y,Y,,
185,{810000000000001004},interphone,On,10,4,410-04-승강장비상통화,410-04-승강장비상통화 호출,410-04 P-D2,,,Y,,Y,Y,,
729,{810000000000001005},interphone,On,10,5,410-05-콜폰,410-05-콜폰 호출,410-09 화장실,,,Y,,,,Y,
591,{810000000000001006},interphone,On,10,6,410-06-E/L1호기-F1,410-06-E/L1호기-F1 호출,410-11 E/L1호기-F1,,,Y,Y,,,,
593,{810000000000001007},interphone,On,10,7,410-07-E/L1호기-승강장,410-07-E/L1호기-승강장 호출,410-12 E/L1호기-승강장,,,Y,Y,,,,
595,{810000000000001008},interphone,On,10,8,410-08-E/L1호기-내부,410-08-E/L1호기-내부 호출,410-13 E/L1호기-내부,,,Y,Y,,,,
174,{810000000000001101},interphone,On,11,1,411-01-승강장비상통화,411-01-승강장비상통화 호출,411-01 P-U1,,,Y,,Y,Y,,
175,{810000000000001102},interphone,On,11,2,411-02-승강장비상통화,411-02-승강장비상통화 호출,411-02 P-U2,,,Y,,Y,Y,,
176,{810000000000001103},interphone,On,11,3,411-03-승강장비상통화,411-03-승강장비상통화 호출,411-03 P-D1,,,Y,,Y,Y,,
177,{810000000000001104},interphone,On,11,4,411-04-승강장비상통화,411-04-승강장비상통화 호출,411-04 P-D2,,,Y,,Y,Y,,
731,{810000000000001105},interphone,On,11,5,411-05-콜폰,411-05-콜폰 호출,411-10 화장실,,,Y,,,,Y,
597,{810000000000001106},interphone,On,11,6,411-06-E/L1호기-F1,411-06-E/L1호기-F1 호출,411-12 E/L1호기-F1,,,Y,Y,,,,
599,{810000000000001107},interphone,On,11,7,411-07-E/L1호기-F2,411-07-E/L1호기-F2 호출,411-13 E/L1호기-F2,,,Y,Y,,,,
601,{810000000000001108},interphone,On,11,8,411-08-E/L1호기-내부,411-08-E/L1호기-내부 호출,411-14 E/L1호기-내부,,,Y,Y,,,,
603,{810000000000001109},interphone,On,11,9,411-09-E/L2호기-F1,411-09-E/L2호기-F1 호출,411-15 E/L2호기-F1,,,Y,Y,,,,
605,{810000000000001110},interphone,On,11,10,411-10-E/L2호기-F2,411-10-E/L2호기-F2 호출,411-16 E/L2호기-F2,,,Y,Y,,,,
607,{810000000000001111},interphone,On,11,11,411-11-E/L2호기-내부,411-11-E/L2호기-내부 호출,411-17 E/L2호기-내부,,,Y,Y,,,,
609,{810000000000001112},interphone,On,11,12,411-12-E/L3호기-F2,411-12-E/L3호기-F2 호출,411-18 E/L3호기-F2,,,Y,Y,,,,
611,{810000000000001113},interphone,On,11,13,411-13-E/L3호기-승강장,411-13-E/L3호기-승강장 호출,411-19 E/L3호기-승강장,,,Y,Y,,,,
613,{810000000000001114},interphone,On,11,14,411-14-E/L3호기-내부,411-14-E/L3호기-내부 호출,411-20 E/L3호기-내부,,,Y,Y,,,,
168,{810000000000001201},interphone,On,12,1,412-01-승강장비상통화,412-01-승강장비상통화 호출,412-01 P-U1,,,Y,,Y,Y,,
169,{810000000000001202},interphone,On,12,2,412-02-승강장비상통화,412-02-승강장비상통화 호출,412-02 P-U2,,,Y,,Y,Y,,
170,{810000000000001203},interphone,On,12,3,412-03-승강장비상통화,412-03-승강장비상통화 호출,412-03 P-D1,,,Y,,Y,Y,,
171,{810000000000001204},interphone,On,12,4,412-04-승강장비상통화,412-04-승강장비상통화 호출,412-04 P-D2,,,Y,,Y,Y,,
733,{810000000000001205},interphone,On,12,5,412-05-콜폰,412-05-콜폰 호출,412-10 화장실,,,Y,,,,Y,
621,{810000000000001206},interphone,On,12,6,412-06-E/L1호기-F1,412-06-E/L1호기-F1 호출,412-12 E/L1호기-F1,,,Y,Y,,,,
623,{810000000000001207},interphone,On,12,7,412-07-E/L1호기-F2,412-07-E/L1호기-F2 호출,412-13 E/L1호기-F2,,,Y,Y,,,,
625,{810000000000001208},interphone,On,12,8,412-08-E/L1호기-내부,412-08-E/L1호기-내부 호출,412-14 E/L1호기-내부,,,Y,Y,,,,
627,{810000000000001209},interphone,On,12,9,412-09-E/L2호기-F1,412-09-E/L2호기-F1 호출,412-15 E/L2호기-F1,,,Y,Y,,,,
629,{810000000000001210},interphone,On,12,10,412-10-E/L2호기-F2,412-10-E/L2호기-F2 호출,412-16 E/L2호기-F2,,,Y,Y,,,,
631,{810000000000001211},interphone,On,12,11,412-11-E/L2호기-내부,412-11-E/L2호기-내부 호출,412-17 E/L2호기-내부,,,Y,Y,,,,
633,{810000000000001212},interphone,On,12,12,412-12-E/L3호기-F2,412-12-E/L3호기-F2 호출,412-18 E/L3호기-F2,,,Y,Y,,,,
635,{810000000000001213},interphone,On,12,13,412-13-E/L3호기-승강장,412-13-E/L3호기-승강장 호출,412-19 E/L3호기-승강장,,,Y,Y,,,,
637,{810000000000001214},interphone,On,12,14,412-14-E/L3호기-내부,412-14-E/L3호기-내부 호출,412-20 E/L3호기-내부,,,Y,Y,,,,
160,{810000000000001301},interphone,On,13,1,413-01-승강장비상통화,413-01-승강장비상통화 호출,413-01 P-U1,,,Y,,Y,Y,,
161,{810000000000001302},interphone,On,13,2,413-02-승강장비상통화,413-02-승강장비상통화 호출,413-02 P-U2,,,Y,,Y,Y,,
162,{810000000000001303},interphone,On,13,3,413-03-승강장비상통화,413-03-승강장비상통화 호출,413-03 P-D1,,,Y,,Y,Y,,
163,{810000000000001304},interphone,On,13,4,413-04-승강장비상통화,413-04-승강장비상통화 호출,413-04 P-D2,,,Y,,Y,Y,,
735,{810000000000001305},interphone,On,13,5,413-05-콜폰,413-05-콜폰 호출,413-10 화장실,,,Y,,,,Y,
641,{810000000000001306},interphone,On,13,6,413-06-E/L1호기-F1,413-06-E/L1호기-F1 호출,413-12 E/L1호기-F1,,,Y,Y,,,,
643,{810000000000001307},interphone,On,13,7,413-07-E/L1호기-F2,413-07-E/L1호기-F2 호출,413-13 E/L1호기-F2,,,Y,Y,,,,
645,{810000000000001308},interphone,On,13,8,413-08-E/L1호기-내부,413-08-E/L1호기-내부 호출,413-14 E/L1호기-내부,,,Y,Y,,,,
647,{810000000000001309},interphone,On,13,9,413-09-E/L2호기-F1,413-09-E/L2호기-F1 호출,413-15 E/L2호기-F1,,,Y,Y,,,,
649,{810000000000001310},interphone,On,13,10,413-10-E/L2호기-F2,413-10-E/L2호기-F2 호출,413-16 E/L2호기-F2,,,Y,Y,,,,
651,{810000000000001311},interphone,On,13,11,413-11-E/L2호기-내부,413-11-E/L2호기-내부 호출,413-17 E/L2호기-내부,,,Y,Y,,,,
653,{810000000000001312},interphone,On,13,12,413-12-E/L3호기-F2,413-12-E/L3호기-F2 호출,413-18 E/L3호기-F2,,,Y,Y,,,,
655,{810000000000001313},interphone,On,13,13,413-13-E/L3호기-승강장,413-13-E/L3호기-승강장 호출,413-19 E/L3호기-승강장,,,Y,Y,,,,
657,{810000000000001314},interphone,On,13,14,413-14-E/L3호기-내부,413-14-E/L3호기-내부 호출,413-20 E/L3호기-내부,,,Y,Y,,,,
145,{810000000000001401},interphone,On,14,1,414-01-승강장비상통화,414-01-승강장비상통화 호출,414-01 P-U1,,,Y,,Y,Y,,
147,{810000000000001402},interphone,On,14,2,414-02-승강장비상통화,414-02-승강장비상통화 호출,414-02 P-U2,,,Y,,Y,Y,,
155,{810000000000001403},interphone,On,14,3,414-03-승강장비상통화,414-03-승강장비상통화 호출,414-03 P-D1,,,Y,,Y,Y,,
156,{810000000000001404},interphone,On,14,4,414-04-승강장비상통화,414-04-승강장비상통화 호출,414-04 P-D2,,,Y,,Y,Y,,
737,{810000000000001405},interphone,On,14,5,414-05-콜폰,414-05-콜폰 호출,414-10 화장실,,,Y,,,,Y,
659,{810000000000001406},interphone,On,14,6,414-06-E/L1호기-F1,414-06-E/L1호기-F1 호출,414-12 E/L1호기-F1,,,Y,Y,,,,
661,{810000000000001407},interphone,On,14,7,414-07-E/L1호기-F2,414-07-E/L1호기-F2 호출,414-13 E/L1호기-F2,,,Y,Y,,,,
663,{810000000000001408},interphone,On,14,8,414-08-E/L1호기-내부,414-08-E/L1호기-내부 호출,414-14 E/L1호기-내부,,,Y,Y,,,,
665,{810000000000001409},interphone,On,14,9,414-09-E/L2호기-F1,414-09-E/L2호기-F1 호출,414-15 E/L2호기-F1,,,Y,Y,,,,
667,{810000000000001410},interphone,On,14,10,414-10-E/L2호기-F2,414-10-E/L2호기-F2 호출,414-16 E/L2호기-F2,,,Y,Y,,,,
669,{810000000000001411},interphone,On,14,11,414-11-E/L2호기-내부,414-11-E/L2호기-내부 호출,414-17 E/L2호기-내부,,,Y,Y,,,,
671,{810000000000001412},interphone,On,14,12,414-12-E/L3호기-F2,414-12-E/L3호기-F2 호출,414-18 E/L3호기-F2,,,Y,Y,,,,
673,{810000000000001413},interphone,On,14,13,414-13-E/L3호기-승강장,414-13-E/L3호기-승강장 호출,414-19 E/L3호기-승강장,,,Y,Y,,,,
675,{810000000000001414},interphone,On,14,14,414-14-E/L3호기-내부,414-14-E/L3호기-내부 호출,414-20 E/L3호기-내부,,,Y,Y,,,,
